%!PS-Adobe-2.0
%%Title: FWR.eps
%%Creator: gnuplot 5.2 patchlevel 2
%%CreationDate: Sat Jul 14 15:14:30 2018
%%DocumentFonts: (atend)
%%BoundingBox: 50 50 554 770
%%Orientation: Landscape
%%Pages: (atend)
%%EndComments
%%BeginProlog
/gnudict 256 dict def
gnudict begin
%
% The following true/false flags may be edited by hand if desired.
% The unit line width and grayscale image gamma correction may also be changed.
%
/Color false def
/Blacktext false def
/Solid false def
/Dashlength 1 def
/Landscape true def
/Level1 false def
/Level3 false def
/Rounded false def
/ClipToBoundingBox false def
/SuppressPDFMark false def
/TransparentPatterns false def
/gnulinewidth 5.000 def
/userlinewidth gnulinewidth def
/Gamma 1.0 def
/BackgroundColor {-1.000 -1.000 -1.000} def
%
/vshift -46 def
/dl1 {
  10.0 Dashlength userlinewidth gnulinewidth div mul mul mul
  Rounded { currentlinewidth 0.75 mul sub dup 0 le { pop 0.01 } if } if
} def
/dl2 {
  10.0 Dashlength userlinewidth gnulinewidth div mul mul mul
  Rounded { currentlinewidth 0.75 mul add } if
} def
/hpt_ 31.5 def
/vpt_ 31.5 def
/hpt hpt_ def
/vpt vpt_ def
/doclip {
  ClipToBoundingBox {
    newpath 50 50 moveto 554 50 lineto 554 770 lineto 50 770 lineto closepath
    clip
  } if
} def
%
% Gnuplot Prolog Version 5.1 (Oct 2015)
%
%/SuppressPDFMark true def
%
/M {moveto} bind def
/L {lineto} bind def
/R {rmoveto} bind def
/V {rlineto} bind def
/N {newpath moveto} bind def
/Z {closepath} bind def
/C {setrgbcolor} bind def
/f {rlineto fill} bind def
/g {setgray} bind def
/Gshow {show} def   % May be redefined later in the file to support UTF-8
/vpt2 vpt 2 mul def
/hpt2 hpt 2 mul def
/Lshow {currentpoint stroke M 0 vshift R 
	Blacktext {gsave 0 setgray textshow grestore} {textshow} ifelse} def
/Rshow {currentpoint stroke M dup stringwidth pop neg vshift R
	Blacktext {gsave 0 setgray textshow grestore} {textshow} ifelse} def
/Cshow {currentpoint stroke M dup stringwidth pop -2 div vshift R 
	Blacktext {gsave 0 setgray textshow grestore} {textshow} ifelse} def
/UP {dup vpt_ mul /vpt exch def hpt_ mul /hpt exch def
  /hpt2 hpt 2 mul def /vpt2 vpt 2 mul def} def
/DL {Color {setrgbcolor Solid {pop []} if 0 setdash}
 {pop pop pop 0 setgray Solid {pop []} if 0 setdash} ifelse} def
/BL {stroke userlinewidth 2 mul setlinewidth
	Rounded {1 setlinejoin 1 setlinecap} if} def
/AL {stroke userlinewidth 2 div setlinewidth
	Rounded {1 setlinejoin 1 setlinecap} if} def
/UL {dup gnulinewidth mul /userlinewidth exch def
	dup 1 lt {pop 1} if 10 mul /udl exch def} def
/PL {stroke userlinewidth setlinewidth
	Rounded {1 setlinejoin 1 setlinecap} if} def
3.8 setmiterlimit
% Classic Line colors (version 5.0)
/LCw {1 1 1} def
/LCb {0 0 0} def
/LCa {0 0 0} def
/LC0 {1 0 0} def
/LC1 {0 1 0} def
/LC2 {0 0 1} def
/LC3 {1 0 1} def
/LC4 {0 1 1} def
/LC5 {1 1 0} def
/LC6 {0 0 0} def
/LC7 {1 0.3 0} def
/LC8 {0.5 0.5 0.5} def
% Default dash patterns (version 5.0)
/LTB {BL [] LCb DL} def
/LTw {PL [] 1 setgray} def
/LTb {PL [] LCb DL} def
/LTa {AL [1 udl mul 2 udl mul] 0 setdash LCa setrgbcolor} def
/LT0 {PL [] LC0 DL} def
/LT1 {PL [2 dl1 3 dl2] LC1 DL} def
/LT2 {PL [1 dl1 1.5 dl2] LC2 DL} def
/LT3 {PL [6 dl1 2 dl2 1 dl1 2 dl2] LC3 DL} def
/LT4 {PL [1 dl1 2 dl2 6 dl1 2 dl2 1 dl1 2 dl2] LC4 DL} def
/LT5 {PL [4 dl1 2 dl2] LC5 DL} def
/LT6 {PL [1.5 dl1 1.5 dl2 1.5 dl1 1.5 dl2 1.5 dl1 6 dl2] LC6 DL} def
/LT7 {PL [3 dl1 3 dl2 1 dl1 3 dl2] LC7 DL} def
/LT8 {PL [2 dl1 2 dl2 2 dl1 6 dl2] LC8 DL} def
/SL {[] 0 setdash} def
/Pnt {stroke [] 0 setdash gsave 1 setlinecap M 0 0 V stroke grestore} def
/Dia {stroke [] 0 setdash 2 copy vpt add M
  hpt neg vpt neg V hpt vpt neg V
  hpt vpt V hpt neg vpt V closepath stroke
  Pnt} def
/Pls {stroke [] 0 setdash vpt sub M 0 vpt2 V
  currentpoint stroke M
  hpt neg vpt neg R hpt2 0 V stroke
 } def
/Box {stroke [] 0 setdash 2 copy exch hpt sub exch vpt add M
  0 vpt2 neg V hpt2 0 V 0 vpt2 V
  hpt2 neg 0 V closepath stroke
  Pnt} def
/Crs {stroke [] 0 setdash exch hpt sub exch vpt add M
  hpt2 vpt2 neg V currentpoint stroke M
  hpt2 neg 0 R hpt2 vpt2 V stroke} def
/TriU {stroke [] 0 setdash 2 copy vpt 1.12 mul add M
  hpt neg vpt -1.62 mul V
  hpt 2 mul 0 V
  hpt neg vpt 1.62 mul V closepath stroke
  Pnt} def
/Star {2 copy Pls Crs} def
/BoxF {stroke [] 0 setdash exch hpt sub exch vpt add M
  0 vpt2 neg V hpt2 0 V 0 vpt2 V
  hpt2 neg 0 V closepath fill} def
/TriUF {stroke [] 0 setdash vpt 1.12 mul add M
  hpt neg vpt -1.62 mul V
  hpt 2 mul 0 V
  hpt neg vpt 1.62 mul V closepath fill} def
/TriD {stroke [] 0 setdash 2 copy vpt 1.12 mul sub M
  hpt neg vpt 1.62 mul V
  hpt 2 mul 0 V
  hpt neg vpt -1.62 mul V closepath stroke
  Pnt} def
/TriDF {stroke [] 0 setdash vpt 1.12 mul sub M
  hpt neg vpt 1.62 mul V
  hpt 2 mul 0 V
  hpt neg vpt -1.62 mul V closepath fill} def
/DiaF {stroke [] 0 setdash vpt add M
  hpt neg vpt neg V hpt vpt neg V
  hpt vpt V hpt neg vpt V closepath fill} def
/Pent {stroke [] 0 setdash 2 copy gsave
  translate 0 hpt M 4 {72 rotate 0 hpt L} repeat
  closepath stroke grestore Pnt} def
/PentF {stroke [] 0 setdash gsave
  translate 0 hpt M 4 {72 rotate 0 hpt L} repeat
  closepath fill grestore} def
/Circle {stroke [] 0 setdash 2 copy
  hpt 0 360 arc stroke Pnt} def
/CircleF {stroke [] 0 setdash hpt 0 360 arc fill} def
/C0 {BL [] 0 setdash 2 copy moveto vpt 90 450 arc} bind def
/C1 {BL [] 0 setdash 2 copy moveto
	2 copy vpt 0 90 arc closepath fill
	vpt 0 360 arc closepath} bind def
/C2 {BL [] 0 setdash 2 copy moveto
	2 copy vpt 90 180 arc closepath fill
	vpt 0 360 arc closepath} bind def
/C3 {BL [] 0 setdash 2 copy moveto
	2 copy vpt 0 180 arc closepath fill
	vpt 0 360 arc closepath} bind def
/C4 {BL [] 0 setdash 2 copy moveto
	2 copy vpt 180 270 arc closepath fill
	vpt 0 360 arc closepath} bind def
/C5 {BL [] 0 setdash 2 copy moveto
	2 copy vpt 0 90 arc
	2 copy moveto
	2 copy vpt 180 270 arc closepath fill
	vpt 0 360 arc} bind def
/C6 {BL [] 0 setdash 2 copy moveto
	2 copy vpt 90 270 arc closepath fill
	vpt 0 360 arc closepath} bind def
/C7 {BL [] 0 setdash 2 copy moveto
	2 copy vpt 0 270 arc closepath fill
	vpt 0 360 arc closepath} bind def
/C8 {BL [] 0 setdash 2 copy moveto
	2 copy vpt 270 360 arc closepath fill
	vpt 0 360 arc closepath} bind def
/C9 {BL [] 0 setdash 2 copy moveto
	2 copy vpt 270 450 arc closepath fill
	vpt 0 360 arc closepath} bind def
/C10 {BL [] 0 setdash 2 copy 2 copy moveto vpt 270 360 arc closepath fill
	2 copy moveto
	2 copy vpt 90 180 arc closepath fill
	vpt 0 360 arc closepath} bind def
/C11 {BL [] 0 setdash 2 copy moveto
	2 copy vpt 0 180 arc closepath fill
	2 copy moveto
	2 copy vpt 270 360 arc closepath fill
	vpt 0 360 arc closepath} bind def
/C12 {BL [] 0 setdash 2 copy moveto
	2 copy vpt 180 360 arc closepath fill
	vpt 0 360 arc closepath} bind def
/C13 {BL [] 0 setdash 2 copy moveto
	2 copy vpt 0 90 arc closepath fill
	2 copy moveto
	2 copy vpt 180 360 arc closepath fill
	vpt 0 360 arc closepath} bind def
/C14 {BL [] 0 setdash 2 copy moveto
	2 copy vpt 90 360 arc closepath fill
	vpt 0 360 arc} bind def
/C15 {BL [] 0 setdash 2 copy vpt 0 360 arc closepath fill
	vpt 0 360 arc closepath} bind def
/Rec {newpath 4 2 roll moveto 1 index 0 rlineto 0 exch rlineto
	neg 0 rlineto closepath} bind def
/Square {dup Rec} bind def
/Bsquare {vpt sub exch vpt sub exch vpt2 Square} bind def
/S0 {BL [] 0 setdash 2 copy moveto 0 vpt rlineto BL Bsquare} bind def
/S1 {BL [] 0 setdash 2 copy vpt Square fill Bsquare} bind def
/S2 {BL [] 0 setdash 2 copy exch vpt sub exch vpt Square fill Bsquare} bind def
/S3 {BL [] 0 setdash 2 copy exch vpt sub exch vpt2 vpt Rec fill Bsquare} bind def
/S4 {BL [] 0 setdash 2 copy exch vpt sub exch vpt sub vpt Square fill Bsquare} bind def
/S5 {BL [] 0 setdash 2 copy 2 copy vpt Square fill
	exch vpt sub exch vpt sub vpt Square fill Bsquare} bind def
/S6 {BL [] 0 setdash 2 copy exch vpt sub exch vpt sub vpt vpt2 Rec fill Bsquare} bind def
/S7 {BL [] 0 setdash 2 copy exch vpt sub exch vpt sub vpt vpt2 Rec fill
	2 copy vpt Square fill Bsquare} bind def
/S8 {BL [] 0 setdash 2 copy vpt sub vpt Square fill Bsquare} bind def
/S9 {BL [] 0 setdash 2 copy vpt sub vpt vpt2 Rec fill Bsquare} bind def
/S10 {BL [] 0 setdash 2 copy vpt sub vpt Square fill 2 copy exch vpt sub exch vpt Square fill
	Bsquare} bind def
/S11 {BL [] 0 setdash 2 copy vpt sub vpt Square fill 2 copy exch vpt sub exch vpt2 vpt Rec fill
	Bsquare} bind def
/S12 {BL [] 0 setdash 2 copy exch vpt sub exch vpt sub vpt2 vpt Rec fill Bsquare} bind def
/S13 {BL [] 0 setdash 2 copy exch vpt sub exch vpt sub vpt2 vpt Rec fill
	2 copy vpt Square fill Bsquare} bind def
/S14 {BL [] 0 setdash 2 copy exch vpt sub exch vpt sub vpt2 vpt Rec fill
	2 copy exch vpt sub exch vpt Square fill Bsquare} bind def
/S15 {BL [] 0 setdash 2 copy Bsquare fill Bsquare} bind def
/D0 {gsave translate 45 rotate 0 0 S0 stroke grestore} bind def
/D1 {gsave translate 45 rotate 0 0 S1 stroke grestore} bind def
/D2 {gsave translate 45 rotate 0 0 S2 stroke grestore} bind def
/D3 {gsave translate 45 rotate 0 0 S3 stroke grestore} bind def
/D4 {gsave translate 45 rotate 0 0 S4 stroke grestore} bind def
/D5 {gsave translate 45 rotate 0 0 S5 stroke grestore} bind def
/D6 {gsave translate 45 rotate 0 0 S6 stroke grestore} bind def
/D7 {gsave translate 45 rotate 0 0 S7 stroke grestore} bind def
/D8 {gsave translate 45 rotate 0 0 S8 stroke grestore} bind def
/D9 {gsave translate 45 rotate 0 0 S9 stroke grestore} bind def
/D10 {gsave translate 45 rotate 0 0 S10 stroke grestore} bind def
/D11 {gsave translate 45 rotate 0 0 S11 stroke grestore} bind def
/D12 {gsave translate 45 rotate 0 0 S12 stroke grestore} bind def
/D13 {gsave translate 45 rotate 0 0 S13 stroke grestore} bind def
/D14 {gsave translate 45 rotate 0 0 S14 stroke grestore} bind def
/D15 {gsave translate 45 rotate 0 0 S15 stroke grestore} bind def
/DiaE {stroke [] 0 setdash vpt add M
  hpt neg vpt neg V hpt vpt neg V
  hpt vpt V hpt neg vpt V closepath stroke} def
/BoxE {stroke [] 0 setdash exch hpt sub exch vpt add M
  0 vpt2 neg V hpt2 0 V 0 vpt2 V
  hpt2 neg 0 V closepath stroke} def
/TriUE {stroke [] 0 setdash vpt 1.12 mul add M
  hpt neg vpt -1.62 mul V
  hpt 2 mul 0 V
  hpt neg vpt 1.62 mul V closepath stroke} def
/TriDE {stroke [] 0 setdash vpt 1.12 mul sub M
  hpt neg vpt 1.62 mul V
  hpt 2 mul 0 V
  hpt neg vpt -1.62 mul V closepath stroke} def
/PentE {stroke [] 0 setdash gsave
  translate 0 hpt M 4 {72 rotate 0 hpt L} repeat
  closepath stroke grestore} def
/CircE {stroke [] 0 setdash 
  hpt 0 360 arc stroke} def
/Opaque {gsave closepath 1 setgray fill grestore 0 setgray closepath} def
/DiaW {stroke [] 0 setdash vpt add M
  hpt neg vpt neg V hpt vpt neg V
  hpt vpt V hpt neg vpt V Opaque stroke} def
/BoxW {stroke [] 0 setdash exch hpt sub exch vpt add M
  0 vpt2 neg V hpt2 0 V 0 vpt2 V
  hpt2 neg 0 V Opaque stroke} def
/TriUW {stroke [] 0 setdash vpt 1.12 mul add M
  hpt neg vpt -1.62 mul V
  hpt 2 mul 0 V
  hpt neg vpt 1.62 mul V Opaque stroke} def
/TriDW {stroke [] 0 setdash vpt 1.12 mul sub M
  hpt neg vpt 1.62 mul V
  hpt 2 mul 0 V
  hpt neg vpt -1.62 mul V Opaque stroke} def
/PentW {stroke [] 0 setdash gsave
  translate 0 hpt M 4 {72 rotate 0 hpt L} repeat
  Opaque stroke grestore} def
/CircW {stroke [] 0 setdash 
  hpt 0 360 arc Opaque stroke} def
/BoxFill {gsave Rec 1 setgray fill grestore} def
/Density {
  /Fillden exch def
  currentrgbcolor
  /ColB exch def /ColG exch def /ColR exch def
  /ColR ColR Fillden mul Fillden sub 1 add def
  /ColG ColG Fillden mul Fillden sub 1 add def
  /ColB ColB Fillden mul Fillden sub 1 add def
  ColR ColG ColB setrgbcolor} def
/BoxColFill {gsave Rec PolyFill} def
/PolyFill {gsave Density fill grestore grestore} def
/h {rlineto rlineto rlineto gsave closepath fill grestore} bind def
%
% PostScript Level 1 Pattern Fill routine for rectangles
% Usage: x y w h s a XX PatternFill
%	x,y = lower left corner of box to be filled
%	w,h = width and height of box
%	  a = angle in degrees between lines and x-axis
%	 XX = 0/1 for no/yes cross-hatch
%
/PatternFill {gsave /PFa [ 9 2 roll ] def
  PFa 0 get PFa 2 get 2 div add PFa 1 get PFa 3 get 2 div add translate
  PFa 2 get -2 div PFa 3 get -2 div PFa 2 get PFa 3 get Rec
  TransparentPatterns {} {gsave 1 setgray fill grestore} ifelse
  clip
  currentlinewidth 0.5 mul setlinewidth
  /PFs PFa 2 get dup mul PFa 3 get dup mul add sqrt def
  0 0 M PFa 5 get rotate PFs -2 div dup translate
  0 1 PFs PFa 4 get div 1 add floor cvi
	{PFa 4 get mul 0 M 0 PFs V} for
  0 PFa 6 get ne {
	0 1 PFs PFa 4 get div 1 add floor cvi
	{PFa 4 get mul 0 2 1 roll M PFs 0 V} for
 } if
  stroke grestore} def
%
/languagelevel where
 {pop languagelevel} {1} ifelse
dup 2 lt
	{/InterpretLevel1 true def
	 /InterpretLevel3 false def}
	{/InterpretLevel1 Level1 def
	 2 gt
	    {/InterpretLevel3 Level3 def}
	    {/InterpretLevel3 false def}
	 ifelse }
 ifelse
%
% PostScript level 2 pattern fill definitions
%
/Level2PatternFill {
/Tile8x8 {/PaintType 2 /PatternType 1 /TilingType 1 /BBox [0 0 8 8] /XStep 8 /YStep 8}
	bind def
/KeepColor {currentrgbcolor [/Pattern /DeviceRGB] setcolorspace} bind def
<< Tile8x8
 /PaintProc {0.5 setlinewidth pop 0 0 M 8 8 L 0 8 M 8 0 L stroke} 
>> matrix makepattern
/Pat1 exch def
<< Tile8x8
 /PaintProc {0.5 setlinewidth pop 0 0 M 8 8 L 0 8 M 8 0 L stroke
	0 4 M 4 8 L 8 4 L 4 0 L 0 4 L stroke}
>> matrix makepattern
/Pat2 exch def
<< Tile8x8
 /PaintProc {0.5 setlinewidth pop 0 0 M 0 8 L
	8 8 L 8 0 L 0 0 L fill}
>> matrix makepattern
/Pat3 exch def
<< Tile8x8
 /PaintProc {0.5 setlinewidth pop -4 8 M 8 -4 L
	0 12 M 12 0 L stroke}
>> matrix makepattern
/Pat4 exch def
<< Tile8x8
 /PaintProc {0.5 setlinewidth pop -4 0 M 8 12 L
	0 -4 M 12 8 L stroke}
>> matrix makepattern
/Pat5 exch def
<< Tile8x8
 /PaintProc {0.5 setlinewidth pop -2 8 M 4 -4 L
	0 12 M 8 -4 L 4 12 M 10 0 L stroke}
>> matrix makepattern
/Pat6 exch def
<< Tile8x8
 /PaintProc {0.5 setlinewidth pop -2 0 M 4 12 L
	0 -4 M 8 12 L 4 -4 M 10 8 L stroke}
>> matrix makepattern
/Pat7 exch def
<< Tile8x8
 /PaintProc {0.5 setlinewidth pop 8 -2 M -4 4 L
	12 0 M -4 8 L 12 4 M 0 10 L stroke}
>> matrix makepattern
/Pat8 exch def
<< Tile8x8
 /PaintProc {0.5 setlinewidth pop 0 -2 M 12 4 L
	-4 0 M 12 8 L -4 4 M 8 10 L stroke}
>> matrix makepattern
/Pat9 exch def
/Pattern1 {PatternBgnd KeepColor Pat1 setpattern} bind def
/Pattern2 {PatternBgnd KeepColor Pat2 setpattern} bind def
/Pattern3 {PatternBgnd KeepColor Pat3 setpattern} bind def
/Pattern4 {PatternBgnd KeepColor Landscape {Pat5} {Pat4} ifelse setpattern} bind def
/Pattern5 {PatternBgnd KeepColor Landscape {Pat4} {Pat5} ifelse setpattern} bind def
/Pattern6 {PatternBgnd KeepColor Landscape {Pat9} {Pat6} ifelse setpattern} bind def
/Pattern7 {PatternBgnd KeepColor Landscape {Pat8} {Pat7} ifelse setpattern} bind def
} def
%
%
%End of PostScript Level 2 code
%
/PatternBgnd {
  TransparentPatterns {} {gsave 1 setgray fill grestore} ifelse
} def
%
% Substitute for Level 2 pattern fill codes with
% grayscale if Level 2 support is not selected.
%
/Level1PatternFill {
/Pattern1 {0.250 Density} bind def
/Pattern2 {0.500 Density} bind def
/Pattern3 {0.750 Density} bind def
/Pattern4 {0.125 Density} bind def
/Pattern5 {0.375 Density} bind def
/Pattern6 {0.625 Density} bind def
/Pattern7 {0.875 Density} bind def
} def
%
% Now test for support of Level 2 code
%
Level1 {Level1PatternFill} {Level2PatternFill} ifelse
%
/Symbol-Oblique /Symbol findfont [1 0 .167 1 0 0] makefont
dup length dict begin {1 index /FID eq {pop pop} {def} ifelse} forall
currentdict end definefont pop
%
/Metrics {ExtendTextBox Gswidth} def
/Lwidth {currentpoint stroke M 0 vshift R Metrics} def
/Rwidth {currentpoint stroke M dup stringwidth pop neg vshift R Metrics} def
/Cwidth {currentpoint stroke M dup stringwidth pop -2 div vshift R Metrics} def
/GLwidth {currentpoint stroke M 0 vshift R {ExtendTextBox} forall} def
/GRwidth {currentpoint stroke M dup Gwidth vshift R {ExtendTextBox} forall} def
/GCwidth {currentpoint stroke M dup Gwidth 2 div vshift R {ExtendTextBox} forall} def
/GLwidth2 {0 Gwidth AddGlyphWidth} def
/GRwidth2 {Gwidth -1 mul 0 AddGlyphWidth} def
/GCwidth2 {Gwidth 2 div dup -1 mul AddGlyphWidth} def
/AddGlyphWidth { dup TBx2 gt {userdict /TBx2 3 -1 roll put} {pop} ifelse
                 dup TBx1 lt {userdict /TBx1 3 -1 roll put} {pop} ifelse } def
/MFshow {
   { dup 5 get 3 ge
     { 5 get 3 eq {gsave} {grestore} ifelse }
     {dup dup 0 get findfont exch 1 get scalefont setfont
     [ currentpoint ] exch dup 2 get 0 exch R dup 5 get 2 ne {dup dup 6
     get exch 4 get {textshow} {Metrics pop 0 R} ifelse }if dup 5 get 0 eq
     {dup 3 get {2 get neg 0 exch R pop} {pop aload pop M} ifelse} {dup 5
     get 1 eq {dup 2 get exch dup 3 get exch 6 get Gswidth pop -2 div
     dup 0 R} {dup 6 get Gswidth pop -2 div 0 R 6 get
     textshow 2 index {aload pop M neg 3 -1 roll neg R pop pop} {pop pop pop
     pop aload pop M} ifelse }ifelse }ifelse }
     ifelse }
   forall} def
/Gswidth {dup type /stringtype eq {stringwidth} {pop (n) stringwidth} ifelse} def
/MFwidth {0 exch { dup 5 get 3 ge { 5 get 3 eq { 0 } { pop } ifelse }
 {dup 3 get{dup dup 0 get findfont exch 1 get scalefont setfont
     6 get Gswidth pop add} {pop} ifelse} ifelse} forall} def
/MLshow { currentpoint stroke M
  0 exch R
  Blacktext {gsave 0 setgray MFshow grestore} {MFshow} ifelse } bind def
/MRshow { currentpoint stroke M
  exch dup MFwidth neg 3 -1 roll R
  Blacktext {gsave 0 setgray MFshow grestore} {MFshow} ifelse } bind def
/MCshow { currentpoint stroke M
  exch dup MFwidth -2 div 3 -1 roll R
  Blacktext {gsave 0 setgray MFshow grestore} {MFshow} ifelse } bind def
/XYsave    { [( ) 1 2 true false 3 ()] } bind def
/XYrestore { [( ) 1 2 true false 4 ()] } bind def
Level1 SuppressPDFMark or 
{} {
/SDict 10 dict def
systemdict /pdfmark known not {
  userdict /pdfmark systemdict /cleartomark get put
} if
SDict begin [
  /Title (FWR.eps)
  /Subject (gnuplot plot)
  /Creator (gnuplot 5.2 patchlevel 2)
%  /Producer (gnuplot)
%  /Keywords ()
  /CreationDate (Sat Jul 14 15:14:30 2018)
  /DOCINFO pdfmark
end
} ifelse
%
% Support for boxed text - Ethan A Merritt Sep 2016
%
/InitTextBox { userdict /TBy2 3 -1 roll put userdict /TBx2 3 -1 roll put
           userdict /TBy1 3 -1 roll put userdict /TBx1 3 -1 roll put
	   /Boxing true def } def
/ExtendTextBox { dup type /stringtype eq
    { Boxing { gsave dup false charpath pathbbox
      dup TBy2 gt {userdict /TBy2 3 -1 roll put} {pop} ifelse
      dup TBx2 gt {userdict /TBx2 3 -1 roll put} {pop} ifelse
      dup TBy1 lt {userdict /TBy1 3 -1 roll put} {pop} ifelse
      dup TBx1 lt {userdict /TBx1 3 -1 roll put} {pop} ifelse
      grestore } if }
    {} ifelse} def
/PopTextBox { newpath TBx1 TBxmargin sub TBy1 TBymargin sub M
               TBx1 TBxmargin sub TBy2 TBymargin add L
	       TBx2 TBxmargin add TBy2 TBymargin add L
	       TBx2 TBxmargin add TBy1 TBymargin sub L closepath } def
/DrawTextBox { PopTextBox stroke /Boxing false def} def
/FillTextBox { gsave PopTextBox fill grestore /Boxing false def} def
0 0 0 0 InitTextBox
/TBxmargin 20 def
/TBymargin 20 def
/Boxing false def
/textshow { ExtendTextBox Gshow } def
%
end
%%EndProlog
%%Page: 1 1
gnudict begin
gsave
doclip
50 50 translate
0.100 0.100 scale
90 rotate
0 -5040 translate
0 setgray
newpath
(Helvetica) findfont 140 scalefont setfont
BackgroundColor 0 lt 3 1 roll 0 lt exch 0 lt or or not {gsave BackgroundColor C clippath fill grestore} if
1.000 UL
LTb
LCb setrgbcolor
0.500 UL
LTa
LCa setrgbcolor
686 448 M
6261 0 V
stroke
1.000 UL
LTb
LCb setrgbcolor
686 448 M
63 0 V
6198 0 R
-63 0 V
stroke
602 448 M
[ [(Helvetica) 140.0 0.0 true true 0 (-3)]
] -46.7 MRshow
1.000 UL
LTb
LCb setrgbcolor
0.500 UL
LTa
LCa setrgbcolor
686 1044 M
6261 0 V
stroke
1.000 UL
LTb
LCb setrgbcolor
686 1044 M
63 0 V
6198 0 R
-63 0 V
stroke
602 1044 M
[ [(Helvetica) 140.0 0.0 true true 0 (-2.5)]
] -46.7 MRshow
1.000 UL
LTb
LCb setrgbcolor
0.500 UL
LTa
LCa setrgbcolor
686 1640 M
6261 0 V
stroke
1.000 UL
LTb
LCb setrgbcolor
686 1640 M
63 0 V
6198 0 R
-63 0 V
stroke
602 1640 M
[ [(Helvetica) 140.0 0.0 true true 0 (-2)]
] -46.7 MRshow
1.000 UL
LTb
LCb setrgbcolor
0.500 UL
LTa
LCa setrgbcolor
686 2236 M
6261 0 V
stroke
1.000 UL
LTb
LCb setrgbcolor
686 2236 M
63 0 V
6198 0 R
-63 0 V
stroke
602 2236 M
[ [(Helvetica) 140.0 0.0 true true 0 (-1.5)]
] -46.7 MRshow
1.000 UL
LTb
LCb setrgbcolor
0.500 UL
LTa
LCa setrgbcolor
686 2831 M
6261 0 V
stroke
1.000 UL
LTb
LCb setrgbcolor
686 2831 M
63 0 V
6198 0 R
-63 0 V
stroke
602 2831 M
[ [(Helvetica) 140.0 0.0 true true 0 (-1)]
] -46.7 MRshow
1.000 UL
LTb
LCb setrgbcolor
0.500 UL
LTa
LCa setrgbcolor
686 3427 M
6261 0 V
stroke
1.000 UL
LTb
LCb setrgbcolor
686 3427 M
63 0 V
6198 0 R
-63 0 V
stroke
602 3427 M
[ [(Helvetica) 140.0 0.0 true true 0 (-0.5)]
] -46.7 MRshow
1.000 UL
LTb
LCb setrgbcolor
0.500 UL
LTa
LCa setrgbcolor
686 4023 M
6261 0 V
stroke
1.000 UL
LTb
LCb setrgbcolor
686 4023 M
63 0 V
6198 0 R
-63 0 V
stroke
602 4023 M
[ [(Helvetica) 140.0 0.0 true true 0 ( 0)]
] -46.7 MRshow
1.000 UL
LTb
LCb setrgbcolor
0.500 UL
LTa
LCa setrgbcolor
686 4619 M
6261 0 V
stroke
1.000 UL
LTb
LCb setrgbcolor
686 4619 M
63 0 V
6198 0 R
-63 0 V
stroke
602 4619 M
[ [(Helvetica) 140.0 0.0 true true 0 ( 0.5)]
] -46.7 MRshow
1.000 UL
LTb
LCb setrgbcolor
0.500 UL
LTa
LCa setrgbcolor
686 448 M
0 4171 V
stroke
1.000 UL
LTb
LCb setrgbcolor
686 448 M
0 63 V
0 4108 R
0 -63 V
stroke
686 308 M
[ [(Helvetica) 140.0 0.0 true true 0 (-1.5)]
] -46.7 MCshow
1.000 UL
LTb
LCb setrgbcolor
0.500 UL
LTa
LCa setrgbcolor
1730 448 M
0 4171 V
stroke
1.000 UL
LTb
LCb setrgbcolor
1730 448 M
0 63 V
0 4108 R
0 -63 V
stroke
1730 308 M
[ [(Helvetica) 140.0 0.0 true true 0 (-1)]
] -46.7 MCshow
1.000 UL
LTb
LCb setrgbcolor
0.500 UL
LTa
LCa setrgbcolor
2773 448 M
0 4171 V
stroke
1.000 UL
LTb
LCb setrgbcolor
2773 448 M
0 63 V
0 4108 R
0 -63 V
stroke
2773 308 M
[ [(Helvetica) 140.0 0.0 true true 0 (-0.5)]
] -46.7 MCshow
1.000 UL
LTb
LCb setrgbcolor
0.500 UL
LTa
LCa setrgbcolor
3817 448 M
0 4171 V
stroke
1.000 UL
LTb
LCb setrgbcolor
3817 448 M
0 63 V
0 4108 R
0 -63 V
stroke
3817 308 M
[ [(Helvetica) 140.0 0.0 true true 0 ( 0)]
] -46.7 MCshow
1.000 UL
LTb
LCb setrgbcolor
0.500 UL
LTa
LCa setrgbcolor
4860 448 M
0 3968 V
0 140 R
0 63 V
stroke
1.000 UL
LTb
LCb setrgbcolor
4860 448 M
0 63 V
0 4108 R
0 -63 V
stroke
4860 308 M
[ [(Helvetica) 140.0 0.0 true true 0 ( 0.5)]
] -46.7 MCshow
1.000 UL
LTb
LCb setrgbcolor
0.500 UL
LTa
LCa setrgbcolor
5904 448 M
0 3968 V
0 140 R
0 63 V
stroke
1.000 UL
LTb
LCb setrgbcolor
5904 448 M
0 63 V
0 4108 R
0 -63 V
stroke
5904 308 M
[ [(Helvetica) 140.0 0.0 true true 0 ( 1)]
] -46.7 MCshow
1.000 UL
LTb
LCb setrgbcolor
0.500 UL
LTa
LCa setrgbcolor
6947 448 M
0 4171 V
stroke
1.000 UL
LTb
LCb setrgbcolor
6947 448 M
0 63 V
0 4108 R
0 -63 V
stroke
6947 308 M
[ [(Helvetica) 140.0 0.0 true true 0 ( 1.5)]
] -46.7 MCshow
1.000 UL
LTb
LCb setrgbcolor
1.000 UL
LTB
LCb setrgbcolor
686 4619 N
686 448 L
6261 0 V
0 4171 V
-6261 0 V
Z stroke
1.000 UP
1.000 UL
LTb
LCb setrgbcolor
LCb setrgbcolor
126 2533 M
currentpoint gsave translate -270 rotate 0 0 moveto
[ [(Helvetica) 140.0 0.0 true true 0 (z/R)]
] -46.7 MCshow
grestore
LTb
LCb setrgbcolor
3816 98 M
[ [(Helvetica) 140.0 0.0 true true 0 (x/R)]
] -46.7 MCshow
LTb
LCb setrgbcolor
3816 4829 M
[ [(Helvetica) 140.0 0.0 true true 0 (Free wake geometry in hover)]
] -46.7 MCshow
% Begin plot #1
1.000 UL
LTb
LCb setrgbcolor
LCb setrgbcolor
6296 4486 M
[ [(Helvetica) 140.0 0.0 true true 0 (Free wake geometry: rear view)]
] -46.7 MRshow
1.000 UL
LTb
LCb setrgbcolor
6380 4486 M
399 0 V
3817 4111 M
-364 -8 V
-346 -8 V
-320 -8 V
-283 -9 V
-237 -8 V
-186 -9 V
-130 -9 V
-69 -9 V
-11 -11 V
46 -15 V
103 -14 V
157 -14 V
207 -13 V
250 -14 V
284 -13 V
308 -13 V
324 -13 V
327 -13 V
324 -15 V
310 -15 V
288 -15 V
255 -15 V
215 -14 V
169 -15 V
118 -14 V
63 -14 V
7 -15 V
-49 -15 V
-103 -16 V
-154 -15 V
-200 -15 V
-239 -15 V
-272 -15 V
-296 -15 V
-309 -15 V
-314 -16 V
-310 -15 V
-295 -16 V
-271 -15 V
-240 -16 V
-200 -15 V
-155 -16 V
-105 -15 V
-52 -16 V
3 -15 V
58 -16 V
110 -16 V
159 -15 V
204 -16 V
241 -16 V
271 -15 V
294 -16 V
305 -16 V
309 -16 V
302 -16 V
286 -15 V
261 -16 V
229 -16 V
188 -16 V
143 -16 V
92 -16 V
39 -16 V
-15 -16 V
-69 -16 V
-121 -15 V
-169 -16 V
-211 -16 V
-247 -16 V
-276 -16 V
-295 -16 V
-305 -16 V
-307 -16 V
-298 -17 V
-280 -16 V
-253 -16 V
-219 -16 V
-178 -16 V
-130 -16 V
-80 -16 V
-25 -16 V
28 -16 V
82 -16 V
133 -17 V
179 -16 V
221 -16 V
255 -16 V
282 -16 V
299 -16 V
307 -16 V
306 -17 V
295 -16 V
275 -16 V
246 -16 V
210 -16 V
167 -16 V
119 -16 V
66 -17 V
13 -16 V
-42 -16 V
-95 -16 V
-146 -16 V
-191 -16 V
-231 -16 V
-264 -17 V
-289 -16 V
-304 -16 V
-310 -16 V
-306 -16 V
-293 -16 V
-271 -16 V
-240 -16 V
-201 -17 V
-157 -16 V
-107 -16 V
-53 -16 V
1 -16 V
55 -17 V
109 -16 V
159 -16 V
204 -16 V
242 -17 V
273 -16 V
296 -16 V
309 -17 V
313 -16 V
307 -16 V
291 -16 V
267 -16 V
233 -16 V
194 -16 V
147 -16 V
96 -16 V
43 -15 V
-13 -15 V
-68 -15 V
-122 -15 V
-171 -15 V
-216 -15 V
-254 -15 V
-284 -14 V
-306 -15 V
-318 -14 V
-320 -15 V
-313 -14 V
-295 -15 V
-268 -15 V
-233 -15 V
-189 -16 V
-139 -16 V
-86 -16 V
-29 -17 V
28 -16 V
86 -17 V
139 -17 V
190 -18 V
233 -17 V
269 -18 V
298 -18 V
316 -18 V
324 -19 V
323 -18 V
311 -18 V
291 -18 V
261 -18 V
223 -17 V
179 -17 V
128 -16 V
75 -17 V
18 -16 V
-39 -15 V
-95 -15 V
-148 -14 V
-198 -14 V
-242 -14 V
-279 -13 V
-308 -12 V
-327 -12 V
-337 -12 V
-335 -12 V
-324 -12 V
-303 -12 V
-271 -12 V
-231 -13 V
-183 -13 V
-129 -13 V
-71 -14 V
-9 -14 V
52 -15 V
113 -15 V
169 -15 V
222 -15 V
268 -16 V
306 -16 V
335 -16 V
352 -17 V
360 -17 V
357 -17 V
342 -17 V
317 -17 V
284 -15 V
241 -15 V
190 -14 V
134 -13 V
72 -12 V
7 -10 V
-59 -9 V
-125 -7 V
-189 -4 V
-248 -2 V
-301 -1 V
-343 0 V
-376 0 V
-397 1 V
-405 0 V
-401 -1 V
-383 -1 V
5898 4111 M
-47 -8 V
-110 -8 V
-168 -8 V
-220 -9 V
-265 -8 V
-299 -9 V
-326 -9 V
-340 -9 V
-339 -11 V
-334 -15 V
-325 -14 V
-300 -14 V
-267 -13 V
-225 -14 V
-177 -13 V
-123 -13 V
-68 -13 V
-10 -13 V
46 -15 V
101 -15 V
154 -15 V
201 -15 V
243 -14 V
275 -15 V
300 -14 V
315 -14 V
319 -15 V
315 -15 V
302 -16 V
278 -15 V
stroke 4804 3732 M
247 -15 V
207 -15 V
162 -15 V
111 -15 V
57 -15 V
3 -16 V
-53 -15 V
-106 -16 V
-156 -15 V
-201 -16 V
-239 -15 V
-271 -16 V
-293 -15 V
-307 -16 V
-311 -15 V
-305 -16 V
-290 -16 V
-266 -15 V
-234 -16 V
-194 -16 V
-149 -16 V
-98 -15 V
-46 -16 V
9 -16 V
63 -16 V
116 -15 V
163 -16 V
207 -16 V
244 -16 V
273 -16 V
294 -16 V
305 -16 V
307 -16 V
300 -16 V
283 -15 V
257 -16 V
224 -16 V
183 -16 V
136 -16 V
86 -16 V
33 -16 V
-22 -16 V
-76 -16 V
-126 -17 V
-174 -16 V
-216 -16 V
-251 -16 V
-279 -16 V
-297 -16 V
-306 -16 V
-306 -16 V
-296 -16 V
-278 -17 V
-250 -16 V
-214 -16 V
-172 -16 V
-124 -16 V
-73 -16 V
-20 -16 V
36 -17 V
88 -16 V
139 -16 V
186 -16 V
226 -16 V
259 -16 V
285 -16 V
301 -17 V
309 -16 V
306 -16 V
294 -16 V
272 -16 V
243 -16 V
206 -16 V
162 -16 V
113 -17 V
60 -16 V
6 -16 V
-49 -16 V
-102 -16 V
-152 -16 V
-197 -16 V
-237 -17 V
-269 -16 V
-292 -16 V
-307 -16 V
-311 -16 V
-307 -17 V
-292 -16 V
-268 -16 V
-237 -17 V
-197 -16 V
-151 -16 V
-101 -17 V
-47 -16 V
8 -16 V
62 -17 V
116 -16 V
165 -16 V
209 -16 V
247 -16 V
278 -16 V
300 -15 V
312 -16 V
315 -15 V
309 -15 V
292 -15 V
267 -15 V
233 -14 V
193 -15 V
145 -14 V
92 -15 V
38 -14 V
-19 -15 V
-75 -14 V
-129 -15 V
-180 -15 V
-225 -15 V
-263 -16 V
-293 -16 V
-313 -16 V
-324 -16 V
-324 -17 V
-313 -17 V
-294 -18 V
-265 -17 V
-227 -18 V
-182 -18 V
-132 -18 V
-77 -18 V
-21 -18 V
37 -18 V
93 -18 V
145 -18 V
194 -18 V
237 -17 V
272 -17 V
300 -16 V
317 -16 V
327 -16 V
325 -15 V
315 -15 V
294 -15 V
264 -14 V
227 -13 V
182 -13 V
130 -12 V
75 -12 V
16 -12 V
-43 -12 V
-102 -12 V
-158 -13 V
-209 -12 V
-254 -13 V
-293 -13 V
-322 -13 V
-340 -14 V
-349 -14 V
-346 -15 V
-333 -16 V
-310 -15 V
-275 -16 V
-233 -17 V
-182 -16 V
-127 -17 V
-66 -17 V
-3 -18 V
59 -17 V
121 -17 V
178 -16 V
231 -15 V
278 -14 V
318 -14 V
349 -12 V
368 -12 V
379 -10 V
376 -10 V
364 -8 V
338 -5 V
302 -2 V
256 -2 V
201 0 V
137 0 V
69 0 V
-3 1 V
-74 1 V
-145 0 V
3817 4111 M
363 -8 V
346 -8 V
320 -8 V
283 -9 V
237 -8 V
186 -9 V
130 -9 V
69 -9 V
11 -11 V
-46 -15 V
-103 -14 V
-157 -14 V
-207 -13 V
-250 -14 V
-284 -13 V
-308 -13 V
-324 -13 V
-327 -13 V
-324 -15 V
-310 -15 V
-288 -15 V
-255 -15 V
-215 -14 V
-169 -15 V
-118 -14 V
-63 -14 V
-7 -15 V
49 -15 V
103 -16 V
154 -15 V
200 -15 V
239 -15 V
272 -15 V
296 -15 V
309 -15 V
314 -16 V
310 -15 V
295 -16 V
271 -15 V
240 -16 V
200 -15 V
155 -16 V
105 -15 V
52 -16 V
-4 -15 V
-57 -16 V
-110 -16 V
-160 -15 V
-203 -16 V
-241 -16 V
-272 -15 V
-293 -16 V
-305 -16 V
-309 -16 V
-302 -16 V
-286 -15 V
-261 -16 V
-229 -16 V
-188 -16 V
-143 -16 V
-92 -16 V
-39 -16 V
stroke 2077 3233 M
15 -16 V
69 -16 V
121 -16 V
169 -15 V
211 -16 V
247 -16 V
275 -16 V
296 -16 V
305 -16 V
307 -16 V
298 -16 V
280 -17 V
253 -16 V
219 -16 V
178 -16 V
130 -16 V
79 -16 V
26 -16 V
-28 -16 V
-82 -16 V
-133 -16 V
-180 -17 V
-220 -16 V
-255 -16 V
-282 -16 V
-299 -16 V
-307 -16 V
-306 -17 V
-295 -16 V
-275 -16 V
-247 -16 V
-209 -16 V
-167 -16 V
-119 -17 V
-67 -16 V
-12 -16 V
42 -16 V
95 -16 V
145 -16 V
192 -16 V
231 -16 V
264 -17 V
288 -16 V
304 -16 V
310 -16 V
307 -16 V
293 -16 V
270 -16 V
240 -16 V
202 -16 V
156 -17 V
107 -16 V
54 -16 V
-1 -16 V
-56 -17 V
-109 -16 V
-159 -16 V
-204 -17 V
-242 -16 V
-273 -16 V
-296 -17 V
-309 -16 V
-313 -16 V
-306 -17 V
-291 -16 V
-267 -16 V
-233 -16 V
-193 -16 V
-148 -16 V
-96 -15 V
-42 -16 V
13 -15 V
68 -15 V
121 -15 V
171 -15 V
216 -15 V
254 -15 V
284 -14 V
305 -15 V
318 -14 V
321 -14 V
312 -15 V
295 -15 V
268 -15 V
233 -15 V
189 -15 V
139 -16 V
86 -16 V
29 -17 V
-28 -16 V
-86 -17 V
-139 -18 V
-190 -17 V
-233 -18 V
-270 -18 V
-297 -18 V
-316 -18 V
-324 -19 V
-323 -18 V
-311 -18 V
-290 -18 V
-261 -18 V
-223 -17 V
-179 -17 V
-129 -16 V
-75 -16 V
-18 -16 V
38 -15 V
95 -15 V
149 -14 V
198 -14 V
242 -14 V
279 -13 V
308 -12 V
327 -12 V
336 -12 V
336 -12 V
324 -12 V
302 -12 V
271 -12 V
231 -13 V
183 -13 V
129 -13 V
71 -14 V
10 -14 V
-53 -14 V
-112 -16 V
-170 -15 V
-223 -16 V
-268 -17 V
-305 -17 V
-334 -18 V
-353 -18 V
-359 -18 V
-356 -18 V
-342 -18 V
-318 -17 V
-284 -15 V
-242 -14 V
-191 -14 V
-134 -12 V
-73 -11 V
-7 -10 V
60 -9 V
126 -7 V
190 -5 V
248 -3 V
300 -2 V
343 -1 V
376 -1 V
396 -1 V
405 0 V
401 0 V
383 0 V
1735 4111 M
47 -8 V
110 -8 V
168 -8 V
220 -9 V
265 -8 V
299 -9 V
326 -9 V
340 -9 V
339 -11 V
334 -15 V
325 -14 V
300 -14 V
267 -13 V
225 -14 V
177 -13 V
123 -13 V
68 -13 V
10 -13 V
-46 -15 V
-101 -15 V
-154 -15 V
-201 -15 V
-243 -14 V
-275 -15 V
-300 -14 V
-315 -14 V
-319 -15 V
-315 -15 V
-302 -16 V
-278 -15 V
-247 -15 V
-207 -15 V
-162 -15 V
-111 -15 V
-57 -15 V
-3 -16 V
53 -15 V
106 -16 V
156 -15 V
201 -16 V
239 -15 V
271 -16 V
293 -15 V
307 -16 V
311 -15 V
305 -16 V
290 -16 V
266 -15 V
234 -16 V
194 -16 V
149 -15 V
98 -16 V
46 -16 V
-9 -16 V
-64 -16 V
-115 -15 V
-163 -16 V
-207 -16 V
-244 -16 V
-273 -16 V
-294 -16 V
-305 -16 V
-308 -16 V
-299 -16 V
-283 -16 V
-258 -15 V
-223 -16 V
-183 -16 V
-136 -16 V
-86 -16 V
-33 -16 V
22 -16 V
75 -17 V
127 -16 V
174 -16 V
216 -16 V
251 -16 V
278 -16 V
297 -16 V
307 -16 V
306 -16 V
296 -16 V
278 -16 V
249 -17 V
215 -16 V
172 -16 V
124 -16 V
73 -16 V
19 -16 V
-35 -17 V
-88 -16 V
-139 -16 V
-186 -16 V
-226 -16 V
stroke 4883 2719 M
-259 -16 V
-285 -16 V
-301 -17 V
-309 -16 V
-306 -16 V
-294 -16 V
-273 -16 V
-243 -16 V
-205 -16 V
-162 -17 V
-113 -16 V
-60 -16 V
-6 -16 V
49 -16 V
102 -16 V
152 -16 V
197 -16 V
237 -17 V
269 -16 V
292 -16 V
306 -16 V
312 -16 V
306 -17 V
293 -16 V
268 -16 V
236 -16 V
197 -17 V
152 -16 V
101 -16 V
47 -17 V
-8 -16 V
-63 -16 V
-115 -17 V
-165 -16 V
-210 -16 V
-247 -16 V
-278 -15 V
-299 -16 V
-312 -16 V
-316 -15 V
-308 -15 V
-293 -15 V
-267 -15 V
-233 -15 V
-192 -14 V
-144 -15 V
-93 -15 V
-38 -14 V
19 -15 V
75 -14 V
130 -15 V
180 -15 V
225 -15 V
262 -15 V
293 -16 V
312 -16 V
324 -17 V
324 -16 V
313 -17 V
294 -18 V
265 -17 V
227 -18 V
182 -18 V
132 -18 V
77 -18 V
20 -19 V
-37 -18 V
-93 -18 V
-145 -18 V
-194 -18 V
-237 -17 V
-272 -17 V
-299 -16 V
-317 -17 V
-327 -15 V
-325 -16 V
-314 -15 V
-294 -14 V
-265 -14 V
-227 -13 V
-182 -13 V
-130 -12 V
-75 -12 V
-16 -12 V
43 -12 V
102 -13 V
158 -12 V
209 -12 V
255 -12 V
292 -13 V
321 -13 V
341 -14 V
349 -14 V
346 -14 V
333 -15 V
309 -15 V
276 -16 V
233 -16 V
182 -16 V
127 -17 V
66 -18 V
3 -18 V
-60 -18 V
-121 -18 V
-178 -17 V
-230 -16 V
-278 -15 V
-318 -13 V
-348 -13 V
-370 -11 V
3570 993 L
-378 -8 V
-365 -7 V
-340 -3 V
-303 -2 V
-255 -1 V
-200 -1 V
-136 -1 V
-68 0 V
3 -1 V
75 -1 V
145 -1 V
% End plot #1
stroke
2.000 UL
LTb
LCb setrgbcolor
1.000 UL
LTB
LCb setrgbcolor
686 4619 N
686 448 L
6261 0 V
0 4171 V
-6261 0 V
Z stroke
1.000 UP
1.000 UL
LTb
LCb setrgbcolor
stroke
grestore
end
showpage
%%Trailer
%%DocumentFonts: Helvetica
%%Pages: 1
