%!PS-Adobe-2.0
%%Title: FWT.eps
%%Creator: gnuplot 5.2 patchlevel 2
%%CreationDate: Sat Jul 14 15:14:31 2018
%%DocumentFonts: (atend)
%%BoundingBox: 50 50 554 770
%%Orientation: Landscape
%%Pages: (atend)
%%EndComments
%%BeginProlog
/gnudict 256 dict def
gnudict begin
%
% The following true/false flags may be edited by hand if desired.
% The unit line width and grayscale image gamma correction may also be changed.
%
/Color false def
/Blacktext false def
/Solid false def
/Dashlength 1 def
/Landscape true def
/Level1 false def
/Level3 false def
/Rounded false def
/ClipToBoundingBox false def
/SuppressPDFMark false def
/TransparentPatterns false def
/gnulinewidth 5.000 def
/userlinewidth gnulinewidth def
/Gamma 1.0 def
/BackgroundColor {-1.000 -1.000 -1.000} def
%
/vshift -46 def
/dl1 {
  10.0 Dashlength userlinewidth gnulinewidth div mul mul mul
  Rounded { currentlinewidth 0.75 mul sub dup 0 le { pop 0.01 } if } if
} def
/dl2 {
  10.0 Dashlength userlinewidth gnulinewidth div mul mul mul
  Rounded { currentlinewidth 0.75 mul add } if
} def
/hpt_ 31.5 def
/vpt_ 31.5 def
/hpt hpt_ def
/vpt vpt_ def
/doclip {
  ClipToBoundingBox {
    newpath 50 50 moveto 554 50 lineto 554 770 lineto 50 770 lineto closepath
    clip
  } if
} def
%
% Gnuplot Prolog Version 5.1 (Oct 2015)
%
%/SuppressPDFMark true def
%
/M {moveto} bind def
/L {lineto} bind def
/R {rmoveto} bind def
/V {rlineto} bind def
/N {newpath moveto} bind def
/Z {closepath} bind def
/C {setrgbcolor} bind def
/f {rlineto fill} bind def
/g {setgray} bind def
/Gshow {show} def   % May be redefined later in the file to support UTF-8
/vpt2 vpt 2 mul def
/hpt2 hpt 2 mul def
/Lshow {currentpoint stroke M 0 vshift R 
	Blacktext {gsave 0 setgray textshow grestore} {textshow} ifelse} def
/Rshow {currentpoint stroke M dup stringwidth pop neg vshift R
	Blacktext {gsave 0 setgray textshow grestore} {textshow} ifelse} def
/Cshow {currentpoint stroke M dup stringwidth pop -2 div vshift R 
	Blacktext {gsave 0 setgray textshow grestore} {textshow} ifelse} def
/UP {dup vpt_ mul /vpt exch def hpt_ mul /hpt exch def
  /hpt2 hpt 2 mul def /vpt2 vpt 2 mul def} def
/DL {Color {setrgbcolor Solid {pop []} if 0 setdash}
 {pop pop pop 0 setgray Solid {pop []} if 0 setdash} ifelse} def
/BL {stroke userlinewidth 2 mul setlinewidth
	Rounded {1 setlinejoin 1 setlinecap} if} def
/AL {stroke userlinewidth 2 div setlinewidth
	Rounded {1 setlinejoin 1 setlinecap} if} def
/UL {dup gnulinewidth mul /userlinewidth exch def
	dup 1 lt {pop 1} if 10 mul /udl exch def} def
/PL {stroke userlinewidth setlinewidth
	Rounded {1 setlinejoin 1 setlinecap} if} def
3.8 setmiterlimit
% Classic Line colors (version 5.0)
/LCw {1 1 1} def
/LCb {0 0 0} def
/LCa {0 0 0} def
/LC0 {1 0 0} def
/LC1 {0 1 0} def
/LC2 {0 0 1} def
/LC3 {1 0 1} def
/LC4 {0 1 1} def
/LC5 {1 1 0} def
/LC6 {0 0 0} def
/LC7 {1 0.3 0} def
/LC8 {0.5 0.5 0.5} def
% Default dash patterns (version 5.0)
/LTB {BL [] LCb DL} def
/LTw {PL [] 1 setgray} def
/LTb {PL [] LCb DL} def
/LTa {AL [1 udl mul 2 udl mul] 0 setdash LCa setrgbcolor} def
/LT0 {PL [] LC0 DL} def
/LT1 {PL [2 dl1 3 dl2] LC1 DL} def
/LT2 {PL [1 dl1 1.5 dl2] LC2 DL} def
/LT3 {PL [6 dl1 2 dl2 1 dl1 2 dl2] LC3 DL} def
/LT4 {PL [1 dl1 2 dl2 6 dl1 2 dl2 1 dl1 2 dl2] LC4 DL} def
/LT5 {PL [4 dl1 2 dl2] LC5 DL} def
/LT6 {PL [1.5 dl1 1.5 dl2 1.5 dl1 1.5 dl2 1.5 dl1 6 dl2] LC6 DL} def
/LT7 {PL [3 dl1 3 dl2 1 dl1 3 dl2] LC7 DL} def
/LT8 {PL [2 dl1 2 dl2 2 dl1 6 dl2] LC8 DL} def
/SL {[] 0 setdash} def
/Pnt {stroke [] 0 setdash gsave 1 setlinecap M 0 0 V stroke grestore} def
/Dia {stroke [] 0 setdash 2 copy vpt add M
  hpt neg vpt neg V hpt vpt neg V
  hpt vpt V hpt neg vpt V closepath stroke
  Pnt} def
/Pls {stroke [] 0 setdash vpt sub M 0 vpt2 V
  currentpoint stroke M
  hpt neg vpt neg R hpt2 0 V stroke
 } def
/Box {stroke [] 0 setdash 2 copy exch hpt sub exch vpt add M
  0 vpt2 neg V hpt2 0 V 0 vpt2 V
  hpt2 neg 0 V closepath stroke
  Pnt} def
/Crs {stroke [] 0 setdash exch hpt sub exch vpt add M
  hpt2 vpt2 neg V currentpoint stroke M
  hpt2 neg 0 R hpt2 vpt2 V stroke} def
/TriU {stroke [] 0 setdash 2 copy vpt 1.12 mul add M
  hpt neg vpt -1.62 mul V
  hpt 2 mul 0 V
  hpt neg vpt 1.62 mul V closepath stroke
  Pnt} def
/Star {2 copy Pls Crs} def
/BoxF {stroke [] 0 setdash exch hpt sub exch vpt add M
  0 vpt2 neg V hpt2 0 V 0 vpt2 V
  hpt2 neg 0 V closepath fill} def
/TriUF {stroke [] 0 setdash vpt 1.12 mul add M
  hpt neg vpt -1.62 mul V
  hpt 2 mul 0 V
  hpt neg vpt 1.62 mul V closepath fill} def
/TriD {stroke [] 0 setdash 2 copy vpt 1.12 mul sub M
  hpt neg vpt 1.62 mul V
  hpt 2 mul 0 V
  hpt neg vpt -1.62 mul V closepath stroke
  Pnt} def
/TriDF {stroke [] 0 setdash vpt 1.12 mul sub M
  hpt neg vpt 1.62 mul V
  hpt 2 mul 0 V
  hpt neg vpt -1.62 mul V closepath fill} def
/DiaF {stroke [] 0 setdash vpt add M
  hpt neg vpt neg V hpt vpt neg V
  hpt vpt V hpt neg vpt V closepath fill} def
/Pent {stroke [] 0 setdash 2 copy gsave
  translate 0 hpt M 4 {72 rotate 0 hpt L} repeat
  closepath stroke grestore Pnt} def
/PentF {stroke [] 0 setdash gsave
  translate 0 hpt M 4 {72 rotate 0 hpt L} repeat
  closepath fill grestore} def
/Circle {stroke [] 0 setdash 2 copy
  hpt 0 360 arc stroke Pnt} def
/CircleF {stroke [] 0 setdash hpt 0 360 arc fill} def
/C0 {BL [] 0 setdash 2 copy moveto vpt 90 450 arc} bind def
/C1 {BL [] 0 setdash 2 copy moveto
	2 copy vpt 0 90 arc closepath fill
	vpt 0 360 arc closepath} bind def
/C2 {BL [] 0 setdash 2 copy moveto
	2 copy vpt 90 180 arc closepath fill
	vpt 0 360 arc closepath} bind def
/C3 {BL [] 0 setdash 2 copy moveto
	2 copy vpt 0 180 arc closepath fill
	vpt 0 360 arc closepath} bind def
/C4 {BL [] 0 setdash 2 copy moveto
	2 copy vpt 180 270 arc closepath fill
	vpt 0 360 arc closepath} bind def
/C5 {BL [] 0 setdash 2 copy moveto
	2 copy vpt 0 90 arc
	2 copy moveto
	2 copy vpt 180 270 arc closepath fill
	vpt 0 360 arc} bind def
/C6 {BL [] 0 setdash 2 copy moveto
	2 copy vpt 90 270 arc closepath fill
	vpt 0 360 arc closepath} bind def
/C7 {BL [] 0 setdash 2 copy moveto
	2 copy vpt 0 270 arc closepath fill
	vpt 0 360 arc closepath} bind def
/C8 {BL [] 0 setdash 2 copy moveto
	2 copy vpt 270 360 arc closepath fill
	vpt 0 360 arc closepath} bind def
/C9 {BL [] 0 setdash 2 copy moveto
	2 copy vpt 270 450 arc closepath fill
	vpt 0 360 arc closepath} bind def
/C10 {BL [] 0 setdash 2 copy 2 copy moveto vpt 270 360 arc closepath fill
	2 copy moveto
	2 copy vpt 90 180 arc closepath fill
	vpt 0 360 arc closepath} bind def
/C11 {BL [] 0 setdash 2 copy moveto
	2 copy vpt 0 180 arc closepath fill
	2 copy moveto
	2 copy vpt 270 360 arc closepath fill
	vpt 0 360 arc closepath} bind def
/C12 {BL [] 0 setdash 2 copy moveto
	2 copy vpt 180 360 arc closepath fill
	vpt 0 360 arc closepath} bind def
/C13 {BL [] 0 setdash 2 copy moveto
	2 copy vpt 0 90 arc closepath fill
	2 copy moveto
	2 copy vpt 180 360 arc closepath fill
	vpt 0 360 arc closepath} bind def
/C14 {BL [] 0 setdash 2 copy moveto
	2 copy vpt 90 360 arc closepath fill
	vpt 0 360 arc} bind def
/C15 {BL [] 0 setdash 2 copy vpt 0 360 arc closepath fill
	vpt 0 360 arc closepath} bind def
/Rec {newpath 4 2 roll moveto 1 index 0 rlineto 0 exch rlineto
	neg 0 rlineto closepath} bind def
/Square {dup Rec} bind def
/Bsquare {vpt sub exch vpt sub exch vpt2 Square} bind def
/S0 {BL [] 0 setdash 2 copy moveto 0 vpt rlineto BL Bsquare} bind def
/S1 {BL [] 0 setdash 2 copy vpt Square fill Bsquare} bind def
/S2 {BL [] 0 setdash 2 copy exch vpt sub exch vpt Square fill Bsquare} bind def
/S3 {BL [] 0 setdash 2 copy exch vpt sub exch vpt2 vpt Rec fill Bsquare} bind def
/S4 {BL [] 0 setdash 2 copy exch vpt sub exch vpt sub vpt Square fill Bsquare} bind def
/S5 {BL [] 0 setdash 2 copy 2 copy vpt Square fill
	exch vpt sub exch vpt sub vpt Square fill Bsquare} bind def
/S6 {BL [] 0 setdash 2 copy exch vpt sub exch vpt sub vpt vpt2 Rec fill Bsquare} bind def
/S7 {BL [] 0 setdash 2 copy exch vpt sub exch vpt sub vpt vpt2 Rec fill
	2 copy vpt Square fill Bsquare} bind def
/S8 {BL [] 0 setdash 2 copy vpt sub vpt Square fill Bsquare} bind def
/S9 {BL [] 0 setdash 2 copy vpt sub vpt vpt2 Rec fill Bsquare} bind def
/S10 {BL [] 0 setdash 2 copy vpt sub vpt Square fill 2 copy exch vpt sub exch vpt Square fill
	Bsquare} bind def
/S11 {BL [] 0 setdash 2 copy vpt sub vpt Square fill 2 copy exch vpt sub exch vpt2 vpt Rec fill
	Bsquare} bind def
/S12 {BL [] 0 setdash 2 copy exch vpt sub exch vpt sub vpt2 vpt Rec fill Bsquare} bind def
/S13 {BL [] 0 setdash 2 copy exch vpt sub exch vpt sub vpt2 vpt Rec fill
	2 copy vpt Square fill Bsquare} bind def
/S14 {BL [] 0 setdash 2 copy exch vpt sub exch vpt sub vpt2 vpt Rec fill
	2 copy exch vpt sub exch vpt Square fill Bsquare} bind def
/S15 {BL [] 0 setdash 2 copy Bsquare fill Bsquare} bind def
/D0 {gsave translate 45 rotate 0 0 S0 stroke grestore} bind def
/D1 {gsave translate 45 rotate 0 0 S1 stroke grestore} bind def
/D2 {gsave translate 45 rotate 0 0 S2 stroke grestore} bind def
/D3 {gsave translate 45 rotate 0 0 S3 stroke grestore} bind def
/D4 {gsave translate 45 rotate 0 0 S4 stroke grestore} bind def
/D5 {gsave translate 45 rotate 0 0 S5 stroke grestore} bind def
/D6 {gsave translate 45 rotate 0 0 S6 stroke grestore} bind def
/D7 {gsave translate 45 rotate 0 0 S7 stroke grestore} bind def
/D8 {gsave translate 45 rotate 0 0 S8 stroke grestore} bind def
/D9 {gsave translate 45 rotate 0 0 S9 stroke grestore} bind def
/D10 {gsave translate 45 rotate 0 0 S10 stroke grestore} bind def
/D11 {gsave translate 45 rotate 0 0 S11 stroke grestore} bind def
/D12 {gsave translate 45 rotate 0 0 S12 stroke grestore} bind def
/D13 {gsave translate 45 rotate 0 0 S13 stroke grestore} bind def
/D14 {gsave translate 45 rotate 0 0 S14 stroke grestore} bind def
/D15 {gsave translate 45 rotate 0 0 S15 stroke grestore} bind def
/DiaE {stroke [] 0 setdash vpt add M
  hpt neg vpt neg V hpt vpt neg V
  hpt vpt V hpt neg vpt V closepath stroke} def
/BoxE {stroke [] 0 setdash exch hpt sub exch vpt add M
  0 vpt2 neg V hpt2 0 V 0 vpt2 V
  hpt2 neg 0 V closepath stroke} def
/TriUE {stroke [] 0 setdash vpt 1.12 mul add M
  hpt neg vpt -1.62 mul V
  hpt 2 mul 0 V
  hpt neg vpt 1.62 mul V closepath stroke} def
/TriDE {stroke [] 0 setdash vpt 1.12 mul sub M
  hpt neg vpt 1.62 mul V
  hpt 2 mul 0 V
  hpt neg vpt -1.62 mul V closepath stroke} def
/PentE {stroke [] 0 setdash gsave
  translate 0 hpt M 4 {72 rotate 0 hpt L} repeat
  closepath stroke grestore} def
/CircE {stroke [] 0 setdash 
  hpt 0 360 arc stroke} def
/Opaque {gsave closepath 1 setgray fill grestore 0 setgray closepath} def
/DiaW {stroke [] 0 setdash vpt add M
  hpt neg vpt neg V hpt vpt neg V
  hpt vpt V hpt neg vpt V Opaque stroke} def
/BoxW {stroke [] 0 setdash exch hpt sub exch vpt add M
  0 vpt2 neg V hpt2 0 V 0 vpt2 V
  hpt2 neg 0 V Opaque stroke} def
/TriUW {stroke [] 0 setdash vpt 1.12 mul add M
  hpt neg vpt -1.62 mul V
  hpt 2 mul 0 V
  hpt neg vpt 1.62 mul V Opaque stroke} def
/TriDW {stroke [] 0 setdash vpt 1.12 mul sub M
  hpt neg vpt 1.62 mul V
  hpt 2 mul 0 V
  hpt neg vpt -1.62 mul V Opaque stroke} def
/PentW {stroke [] 0 setdash gsave
  translate 0 hpt M 4 {72 rotate 0 hpt L} repeat
  Opaque stroke grestore} def
/CircW {stroke [] 0 setdash 
  hpt 0 360 arc Opaque stroke} def
/BoxFill {gsave Rec 1 setgray fill grestore} def
/Density {
  /Fillden exch def
  currentrgbcolor
  /ColB exch def /ColG exch def /ColR exch def
  /ColR ColR Fillden mul Fillden sub 1 add def
  /ColG ColG Fillden mul Fillden sub 1 add def
  /ColB ColB Fillden mul Fillden sub 1 add def
  ColR ColG ColB setrgbcolor} def
/BoxColFill {gsave Rec PolyFill} def
/PolyFill {gsave Density fill grestore grestore} def
/h {rlineto rlineto rlineto gsave closepath fill grestore} bind def
%
% PostScript Level 1 Pattern Fill routine for rectangles
% Usage: x y w h s a XX PatternFill
%	x,y = lower left corner of box to be filled
%	w,h = width and height of box
%	  a = angle in degrees between lines and x-axis
%	 XX = 0/1 for no/yes cross-hatch
%
/PatternFill {gsave /PFa [ 9 2 roll ] def
  PFa 0 get PFa 2 get 2 div add PFa 1 get PFa 3 get 2 div add translate
  PFa 2 get -2 div PFa 3 get -2 div PFa 2 get PFa 3 get Rec
  TransparentPatterns {} {gsave 1 setgray fill grestore} ifelse
  clip
  currentlinewidth 0.5 mul setlinewidth
  /PFs PFa 2 get dup mul PFa 3 get dup mul add sqrt def
  0 0 M PFa 5 get rotate PFs -2 div dup translate
  0 1 PFs PFa 4 get div 1 add floor cvi
	{PFa 4 get mul 0 M 0 PFs V} for
  0 PFa 6 get ne {
	0 1 PFs PFa 4 get div 1 add floor cvi
	{PFa 4 get mul 0 2 1 roll M PFs 0 V} for
 } if
  stroke grestore} def
%
/languagelevel where
 {pop languagelevel} {1} ifelse
dup 2 lt
	{/InterpretLevel1 true def
	 /InterpretLevel3 false def}
	{/InterpretLevel1 Level1 def
	 2 gt
	    {/InterpretLevel3 Level3 def}
	    {/InterpretLevel3 false def}
	 ifelse }
 ifelse
%
% PostScript level 2 pattern fill definitions
%
/Level2PatternFill {
/Tile8x8 {/PaintType 2 /PatternType 1 /TilingType 1 /BBox [0 0 8 8] /XStep 8 /YStep 8}
	bind def
/KeepColor {currentrgbcolor [/Pattern /DeviceRGB] setcolorspace} bind def
<< Tile8x8
 /PaintProc {0.5 setlinewidth pop 0 0 M 8 8 L 0 8 M 8 0 L stroke} 
>> matrix makepattern
/Pat1 exch def
<< Tile8x8
 /PaintProc {0.5 setlinewidth pop 0 0 M 8 8 L 0 8 M 8 0 L stroke
	0 4 M 4 8 L 8 4 L 4 0 L 0 4 L stroke}
>> matrix makepattern
/Pat2 exch def
<< Tile8x8
 /PaintProc {0.5 setlinewidth pop 0 0 M 0 8 L
	8 8 L 8 0 L 0 0 L fill}
>> matrix makepattern
/Pat3 exch def
<< Tile8x8
 /PaintProc {0.5 setlinewidth pop -4 8 M 8 -4 L
	0 12 M 12 0 L stroke}
>> matrix makepattern
/Pat4 exch def
<< Tile8x8
 /PaintProc {0.5 setlinewidth pop -4 0 M 8 12 L
	0 -4 M 12 8 L stroke}
>> matrix makepattern
/Pat5 exch def
<< Tile8x8
 /PaintProc {0.5 setlinewidth pop -2 8 M 4 -4 L
	0 12 M 8 -4 L 4 12 M 10 0 L stroke}
>> matrix makepattern
/Pat6 exch def
<< Tile8x8
 /PaintProc {0.5 setlinewidth pop -2 0 M 4 12 L
	0 -4 M 8 12 L 4 -4 M 10 8 L stroke}
>> matrix makepattern
/Pat7 exch def
<< Tile8x8
 /PaintProc {0.5 setlinewidth pop 8 -2 M -4 4 L
	12 0 M -4 8 L 12 4 M 0 10 L stroke}
>> matrix makepattern
/Pat8 exch def
<< Tile8x8
 /PaintProc {0.5 setlinewidth pop 0 -2 M 12 4 L
	-4 0 M 12 8 L -4 4 M 8 10 L stroke}
>> matrix makepattern
/Pat9 exch def
/Pattern1 {PatternBgnd KeepColor Pat1 setpattern} bind def
/Pattern2 {PatternBgnd KeepColor Pat2 setpattern} bind def
/Pattern3 {PatternBgnd KeepColor Pat3 setpattern} bind def
/Pattern4 {PatternBgnd KeepColor Landscape {Pat5} {Pat4} ifelse setpattern} bind def
/Pattern5 {PatternBgnd KeepColor Landscape {Pat4} {Pat5} ifelse setpattern} bind def
/Pattern6 {PatternBgnd KeepColor Landscape {Pat9} {Pat6} ifelse setpattern} bind def
/Pattern7 {PatternBgnd KeepColor Landscape {Pat8} {Pat7} ifelse setpattern} bind def
} def
%
%
%End of PostScript Level 2 code
%
/PatternBgnd {
  TransparentPatterns {} {gsave 1 setgray fill grestore} ifelse
} def
%
% Substitute for Level 2 pattern fill codes with
% grayscale if Level 2 support is not selected.
%
/Level1PatternFill {
/Pattern1 {0.250 Density} bind def
/Pattern2 {0.500 Density} bind def
/Pattern3 {0.750 Density} bind def
/Pattern4 {0.125 Density} bind def
/Pattern5 {0.375 Density} bind def
/Pattern6 {0.625 Density} bind def
/Pattern7 {0.875 Density} bind def
} def
%
% Now test for support of Level 2 code
%
Level1 {Level1PatternFill} {Level2PatternFill} ifelse
%
/Symbol-Oblique /Symbol findfont [1 0 .167 1 0 0] makefont
dup length dict begin {1 index /FID eq {pop pop} {def} ifelse} forall
currentdict end definefont pop
%
/Metrics {ExtendTextBox Gswidth} def
/Lwidth {currentpoint stroke M 0 vshift R Metrics} def
/Rwidth {currentpoint stroke M dup stringwidth pop neg vshift R Metrics} def
/Cwidth {currentpoint stroke M dup stringwidth pop -2 div vshift R Metrics} def
/GLwidth {currentpoint stroke M 0 vshift R {ExtendTextBox} forall} def
/GRwidth {currentpoint stroke M dup Gwidth vshift R {ExtendTextBox} forall} def
/GCwidth {currentpoint stroke M dup Gwidth 2 div vshift R {ExtendTextBox} forall} def
/GLwidth2 {0 Gwidth AddGlyphWidth} def
/GRwidth2 {Gwidth -1 mul 0 AddGlyphWidth} def
/GCwidth2 {Gwidth 2 div dup -1 mul AddGlyphWidth} def
/AddGlyphWidth { dup TBx2 gt {userdict /TBx2 3 -1 roll put} {pop} ifelse
                 dup TBx1 lt {userdict /TBx1 3 -1 roll put} {pop} ifelse } def
/MFshow {
   { dup 5 get 3 ge
     { 5 get 3 eq {gsave} {grestore} ifelse }
     {dup dup 0 get findfont exch 1 get scalefont setfont
     [ currentpoint ] exch dup 2 get 0 exch R dup 5 get 2 ne {dup dup 6
     get exch 4 get {textshow} {Metrics pop 0 R} ifelse }if dup 5 get 0 eq
     {dup 3 get {2 get neg 0 exch R pop} {pop aload pop M} ifelse} {dup 5
     get 1 eq {dup 2 get exch dup 3 get exch 6 get Gswidth pop -2 div
     dup 0 R} {dup 6 get Gswidth pop -2 div 0 R 6 get
     textshow 2 index {aload pop M neg 3 -1 roll neg R pop pop} {pop pop pop
     pop aload pop M} ifelse }ifelse }ifelse }
     ifelse }
   forall} def
/Gswidth {dup type /stringtype eq {stringwidth} {pop (n) stringwidth} ifelse} def
/MFwidth {0 exch { dup 5 get 3 ge { 5 get 3 eq { 0 } { pop } ifelse }
 {dup 3 get{dup dup 0 get findfont exch 1 get scalefont setfont
     6 get Gswidth pop add} {pop} ifelse} ifelse} forall} def
/MLshow { currentpoint stroke M
  0 exch R
  Blacktext {gsave 0 setgray MFshow grestore} {MFshow} ifelse } bind def
/MRshow { currentpoint stroke M
  exch dup MFwidth neg 3 -1 roll R
  Blacktext {gsave 0 setgray MFshow grestore} {MFshow} ifelse } bind def
/MCshow { currentpoint stroke M
  exch dup MFwidth -2 div 3 -1 roll R
  Blacktext {gsave 0 setgray MFshow grestore} {MFshow} ifelse } bind def
/XYsave    { [( ) 1 2 true false 3 ()] } bind def
/XYrestore { [( ) 1 2 true false 4 ()] } bind def
Level1 SuppressPDFMark or 
{} {
/SDict 10 dict def
systemdict /pdfmark known not {
  userdict /pdfmark systemdict /cleartomark get put
} if
SDict begin [
  /Title (FWT.eps)
  /Subject (gnuplot plot)
  /Creator (gnuplot 5.2 patchlevel 2)
%  /Producer (gnuplot)
%  /Keywords ()
  /CreationDate (Sat Jul 14 15:14:31 2018)
  /DOCINFO pdfmark
end
} ifelse
%
% Support for boxed text - Ethan A Merritt Sep 2016
%
/InitTextBox { userdict /TBy2 3 -1 roll put userdict /TBx2 3 -1 roll put
           userdict /TBy1 3 -1 roll put userdict /TBx1 3 -1 roll put
	   /Boxing true def } def
/ExtendTextBox { dup type /stringtype eq
    { Boxing { gsave dup false charpath pathbbox
      dup TBy2 gt {userdict /TBy2 3 -1 roll put} {pop} ifelse
      dup TBx2 gt {userdict /TBx2 3 -1 roll put} {pop} ifelse
      dup TBy1 lt {userdict /TBy1 3 -1 roll put} {pop} ifelse
      dup TBx1 lt {userdict /TBx1 3 -1 roll put} {pop} ifelse
      grestore } if }
    {} ifelse} def
/PopTextBox { newpath TBx1 TBxmargin sub TBy1 TBymargin sub M
               TBx1 TBxmargin sub TBy2 TBymargin add L
	       TBx2 TBxmargin add TBy2 TBymargin add L
	       TBx2 TBxmargin add TBy1 TBymargin sub L closepath } def
/DrawTextBox { PopTextBox stroke /Boxing false def} def
/FillTextBox { gsave PopTextBox fill grestore /Boxing false def} def
0 0 0 0 InitTextBox
/TBxmargin 20 def
/TBymargin 20 def
/Boxing false def
/textshow { ExtendTextBox Gshow } def
%
end
%%EndProlog
%%Page: 1 1
gnudict begin
gsave
doclip
50 50 translate
0.100 0.100 scale
90 rotate
0 -5040 translate
0 setgray
newpath
(Helvetica) findfont 140 scalefont setfont
BackgroundColor 0 lt 3 1 roll 0 lt exch 0 lt or or not {gsave BackgroundColor C clippath fill grestore} if
1.000 UL
LTb
LCb setrgbcolor
0.500 UL
LTa
LCa setrgbcolor
686 448 M
6261 0 V
stroke
1.000 UL
LTb
LCb setrgbcolor
686 448 M
63 0 V
6198 0 R
-63 0 V
stroke
602 448 M
[ [(Helvetica) 140.0 0.0 true true 0 (-1.5)]
] -46.7 MRshow
1.000 UL
LTb
LCb setrgbcolor
0.500 UL
LTa
LCa setrgbcolor
686 1143 M
6261 0 V
stroke
1.000 UL
LTb
LCb setrgbcolor
686 1143 M
63 0 V
6198 0 R
-63 0 V
stroke
602 1143 M
[ [(Helvetica) 140.0 0.0 true true 0 (-1)]
] -46.7 MRshow
1.000 UL
LTb
LCb setrgbcolor
0.500 UL
LTa
LCa setrgbcolor
686 1838 M
6261 0 V
stroke
1.000 UL
LTb
LCb setrgbcolor
686 1838 M
63 0 V
6198 0 R
-63 0 V
stroke
602 1838 M
[ [(Helvetica) 140.0 0.0 true true 0 (-0.5)]
] -46.7 MRshow
1.000 UL
LTb
LCb setrgbcolor
0.500 UL
LTa
LCa setrgbcolor
686 2534 M
6261 0 V
stroke
1.000 UL
LTb
LCb setrgbcolor
686 2534 M
63 0 V
6198 0 R
-63 0 V
stroke
602 2534 M
[ [(Helvetica) 140.0 0.0 true true 0 ( 0)]
] -46.7 MRshow
1.000 UL
LTb
LCb setrgbcolor
0.500 UL
LTa
LCa setrgbcolor
686 3229 M
6261 0 V
stroke
1.000 UL
LTb
LCb setrgbcolor
686 3229 M
63 0 V
6198 0 R
-63 0 V
stroke
602 3229 M
[ [(Helvetica) 140.0 0.0 true true 0 ( 0.5)]
] -46.7 MRshow
1.000 UL
LTb
LCb setrgbcolor
0.500 UL
LTa
LCa setrgbcolor
686 3924 M
6261 0 V
stroke
1.000 UL
LTb
LCb setrgbcolor
686 3924 M
63 0 V
6198 0 R
-63 0 V
stroke
602 3924 M
[ [(Helvetica) 140.0 0.0 true true 0 ( 1)]
] -46.7 MRshow
1.000 UL
LTb
LCb setrgbcolor
0.500 UL
LTa
LCa setrgbcolor
686 4619 M
6261 0 V
stroke
1.000 UL
LTb
LCb setrgbcolor
686 4619 M
63 0 V
6198 0 R
-63 0 V
stroke
602 4619 M
[ [(Helvetica) 140.0 0.0 true true 0 ( 1.5)]
] -46.7 MRshow
1.000 UL
LTb
LCb setrgbcolor
0.500 UL
LTa
LCa setrgbcolor
686 448 M
0 4171 V
stroke
1.000 UL
LTb
LCb setrgbcolor
686 448 M
0 63 V
0 4108 R
0 -63 V
stroke
686 308 M
[ [(Helvetica) 140.0 0.0 true true 0 (-1.5)]
] -46.7 MCshow
1.000 UL
LTb
LCb setrgbcolor
0.500 UL
LTa
LCa setrgbcolor
1730 448 M
0 4171 V
stroke
1.000 UL
LTb
LCb setrgbcolor
1730 448 M
0 63 V
0 4108 R
0 -63 V
stroke
1730 308 M
[ [(Helvetica) 140.0 0.0 true true 0 (-1)]
] -46.7 MCshow
1.000 UL
LTb
LCb setrgbcolor
0.500 UL
LTa
LCa setrgbcolor
2773 448 M
0 4171 V
stroke
1.000 UL
LTb
LCb setrgbcolor
2773 448 M
0 63 V
0 4108 R
0 -63 V
stroke
2773 308 M
[ [(Helvetica) 140.0 0.0 true true 0 (-0.5)]
] -46.7 MCshow
1.000 UL
LTb
LCb setrgbcolor
0.500 UL
LTa
LCa setrgbcolor
3817 448 M
0 4171 V
stroke
1.000 UL
LTb
LCb setrgbcolor
3817 448 M
0 63 V
0 4108 R
0 -63 V
stroke
3817 308 M
[ [(Helvetica) 140.0 0.0 true true 0 ( 0)]
] -46.7 MCshow
1.000 UL
LTb
LCb setrgbcolor
0.500 UL
LTa
LCa setrgbcolor
4860 448 M
0 3968 V
0 140 R
0 63 V
stroke
1.000 UL
LTb
LCb setrgbcolor
4860 448 M
0 63 V
0 4108 R
0 -63 V
stroke
4860 308 M
[ [(Helvetica) 140.0 0.0 true true 0 ( 0.5)]
] -46.7 MCshow
1.000 UL
LTb
LCb setrgbcolor
0.500 UL
LTa
LCa setrgbcolor
5904 448 M
0 3968 V
0 140 R
0 63 V
stroke
1.000 UL
LTb
LCb setrgbcolor
5904 448 M
0 63 V
0 4108 R
0 -63 V
stroke
5904 308 M
[ [(Helvetica) 140.0 0.0 true true 0 ( 1)]
] -46.7 MCshow
1.000 UL
LTb
LCb setrgbcolor
0.500 UL
LTa
LCa setrgbcolor
6947 448 M
0 4171 V
stroke
1.000 UL
LTb
LCb setrgbcolor
6947 448 M
0 63 V
0 4108 R
0 -63 V
stroke
6947 308 M
[ [(Helvetica) 140.0 0.0 true true 0 ( 1.5)]
] -46.7 MCshow
1.000 UL
LTb
LCb setrgbcolor
1.000 UL
LTB
LCb setrgbcolor
686 4619 N
686 448 L
6261 0 V
0 4171 V
-6261 0 V
Z stroke
1.000 UP
1.000 UL
LTb
LCb setrgbcolor
LCb setrgbcolor
126 2533 M
currentpoint gsave translate -270 rotate 0 0 moveto
[ [(Helvetica) 140.0 0.0 true true 0 (z/R)]
] -46.7 MCshow
grestore
LTb
LCb setrgbcolor
3816 98 M
[ [(Helvetica) 140.0 0.0 true true 0 (x/R)]
] -46.7 MCshow
LTb
LCb setrgbcolor
3816 4829 M
[ [(Helvetica) 140.0 0.0 true true 0 (Free wake geometry in hover)]
] -46.7 MCshow
% Begin plot #1
1.000 UL
LTb
LCb setrgbcolor
LCb setrgbcolor
6296 4486 M
[ [(Helvetica) 140.0 0.0 true true 0 (Free wake geometry: top view)]
] -46.7 MRshow
1.000 UL
LTb
LCb setrgbcolor
6380 4486 M
399 0 V
5898 2534 M
-47 -243 V
5741 2061 L
5573 1848 L
5353 1659 L
5088 1501 L
4789 1377 L
-326 -86 V
-340 -46 V
-339 -8 V
-334 31 V
-325 69 V
-300 105 V
-267 137 V
-225 167 V
-177 189 V
-123 205 V
-68 216 V
-10 218 V
46 215 V
101 207 V
154 192 V
201 170 V
243 143 V
275 113 V
300 78 V
315 42 V
319 5 V
315 -33 V
302 -68 V
278 -103 V
247 -133 V
207 -160 V
162 -181 V
111 -197 V
57 -206 V
3 -209 V
-53 -206 V
5432 2046 L
5276 1866 L
5075 1706 L
4836 1572 L
4565 1469 L
-293 -70 V
-307 -34 V
-311 2 V
-305 38 V
-290 74 V
-266 106 V
-234 135 V
-194 161 V
-149 181 V
-98 195 V
-46 204 V
9 205 V
63 201 V
116 191 V
163 174 V
207 152 V
244 126 V
273 95 V
294 61 V
305 26 V
308 -10 V
299 -46 V
283 -80 V
257 -113 V
224 -140 V
183 -165 V
136 -184 V
86 -196 V
33 -204 V
-22 -204 V
-75 -199 V
5331 1965 L
5157 1796 L
4941 1650 L
4690 1532 L
-278 -87 V
-297 -53 V
-307 -17 V
-306 19 V
-296 55 V
-278 88 V
-249 120 V
-215 147 V
-172 170 V
-124 187 V
-73 200 V
-20 204 V
36 204 V
88 197 V
139 183 V
186 164 V
226 140 V
259 111 V
285 79 V
301 44 V
309 9 V
306 -28 V
294 -64 V
273 -97 V
243 -127 V
205 -154 V
162 -176 V
113 -192 V
60 -203 V
6 -206 V
-49 -204 V
5415 2049 L
5263 1869 L
5066 1709 L
4829 1575 L
4560 1471 L
-292 -71 V
-307 -36 V
-311 0 V
-307 38 V
-292 72 V
-268 106 V
-237 136 V
-197 161 V
-151 182 V
-101 197 V
-47 206 V
7 209 V
63 204 V
116 194 V
165 177 V
209 156 V
247 129 V
278 98 V
300 64 V
312 29 V
316 -9 V
308 -45 V
293 -81 V
267 -114 V
233 -144 V
192 -169 V
145 -190 V
93 -203 V
38 -212 V
-19 -214 V
-76 -208 V
5408 1936 L
5228 1757 L
5003 1603 L
4740 1477 L
-293 -93 V
-313 -57 V
-323 -20 V
-324 19 V
-314 57 V
-294 93 V
-265 126 V
-227 156 V
-182 179 V
-132 198 V
-77 211 V
-21 216 V
37 215 V
93 207 V
146 194 V
194 174 V
237 148 V
272 119 V
299 86 V
318 50 V
326 12 V
326 -26 V
314 -63 V
294 -99 V
265 -132 V
226 -161 V
182 -186 V
131 -205 V
75 -218 V
16 -224 V
-43 -224 V
5581 2013 L
5423 1812 L
5214 1631 L
4959 1477 L
4667 1355 L
-322 -86 V
-340 -47 V
-349 -6 V
-347 35 V
-333 75 V
-309 113 V
-276 148 V
-233 178 V
-183 204 V
-126 223 V
-66 235 V
-4 240 V
60 237 V
121 228 V
178 211 V
232 190 V
279 160 V
318 127 V
348 89 V
369 48 V
379 5 V
377 -40 V
365 -83 V
339 -126 V
303 -165 V
256 -200 V
200 -229 V
136 -251 V
68 -264 V
-3 -270 V
-75 -267 V
5884 1811 L
3817 3920 M
363 -31 V
346 -74 V
320 -111 V
283 -147 V
237 -176 V
186 -200 V
130 -217 V
69 -226 V
11 -226 V
-46 -223 V
5613 2073 L
5456 1873 L
5249 1695 L
4999 1545 L
4715 1427 L
-308 -82 V
-324 -45 V
-327 -7 V
-324 31 V
-310 67 V
-288 103 V
-255 134 V
-215 162 V
-169 183 V
-118 200 V
-63 209 V
-7 213 V
49 210 V
103 201 V
154 186 V
200 164 V
239 138 V
272 108 V
296 74 V
309 38 V
314 2 V
310 -35 V
295 -71 V
271 -104 V
240 -134 V
200 -159 V
155 -181 V
105 -195 V
52 -205 V
-4 -207 V
-57 -203 V
5400 2029 L
5240 1852 L
5037 1696 L
4796 1566 L
-272 -99 V
-293 -65 V
-305 -30 V
-309 6 V
-302 42 V
-286 76 V
-261 109 V
-229 138 V
-188 163 V
-143 182 V
-92 195 V
-39 204 V
15 204 V
69 200 V
121 189 V
169 171 V
211 149 V
247 122 V
276 91 V
295 57 V
305 21 V
307 -14 V
298 -50 V
280 -85 V
253 -116 V
219 -143 V
178 -168 V
130 -185 V
80 -198 V
25 -204 V
-28 -204 V
-82 -198 V
5312 1942 L
5133 1775 L
4912 1633 L
4657 1518 L
-282 -83 V
-299 -49 V
-307 -12 V
-306 23 V
-295 59 V
-275 93 V
-247 123 V
-209 151 V
-167 173 V
-119 189 V
-67 201 V
-12 206 V
42 203 V
95 196 V
146 182 V
191 162 V
231 137 V
264 108 V
289 75 V
303 40 V
310 4 V
307 -33 V
293 -67 V
271 -102 V
239 -131 V
202 -158 V
156 -179 V
107 -195 V
54 -204 V
-1 -208 V
-56 -204 V
5406 2024 L
5247 1845 L
5044 1687 L
4801 1556 L
4528 1455 L
-296 -67 V
-309 -31 V
-312 5 V
-307 41 V
-291 77 V
-267 110 V
-233 140 V
-193 165 V
-148 185 V
-96 199 V
-42 208 V
12 210 V
69 206 V
121 195 V
171 177 V
216 156 V
253 128 V
285 96 V
305 62 V
319 25 V
320 -12 V
313 -50 V
295 -87 V
268 -119 V
233 -150 V
189 -176 V
140 -194 V
85 -209 V
29 -216 V
-28 -215 V
-86 -209 V
5403 1909 L
5214 1732 L
4981 1581 L
4711 1460 L
-297 -88 V
-316 -51 V
-325 -14 V
-322 24 V
-312 62 V
-290 97 V
-261 129 V
-224 158 V
-179 181 V
-128 200 V
-75 211 V
-18 218 V
38 217 V
96 209 V
148 196 V
199 176 V
242 151 V
279 121 V
308 87 V
327 50 V
336 11 V
336 -29 V
324 -68 V
302 -105 V
271 -139 V
231 -170 V
183 -195 V
130 -214 V
70 -227 V
10 -232 V
-52 -231 V
5629 1973 L
5459 1767 L
5237 1584 L
4969 1429 L
4663 1307 L
-334 -84 V
-353 -44 V
-359 -2 V
-357 39 V
-341 80 V
-318 119 V
-284 154 V
-241 186 V
-190 211 V
-133 232 V
-72 246 V
-6 252 V
60 251 V
126 242 V
189 226 V
247 201 V
299 171 V
343 133 V
375 91 V
396 46 V
405 -1 V
401 -50 V
383 -96 V
1735 2534 M
47 242 V
110 230 V
168 213 V
220 189 V
265 158 V
299 124 V
326 86 V
340 46 V
339 8 V
334 -31 V
325 -69 V
300 -105 V
267 -137 V
225 -167 V
177 -189 V
123 -205 V
68 -216 V
10 -218 V
-46 -215 V
5531 2071 L
5377 1879 L
5176 1709 L
4933 1566 L
4658 1453 L
-300 -78 V
-315 -42 V
-319 -5 V
-315 33 V
-302 68 V
-278 103 V
-247 133 V
-207 160 V
-162 181 V
-111 196 V
-57 207 V
-3 209 V
53 206 V
106 197 V
156 180 V
201 160 V
239 134 V
271 103 V
293 70 V
307 34 V
311 -2 V
305 -38 V
290 -74 V
266 -106 V
234 -135 V
194 -161 V
149 -181 V
98 -195 V
46 -204 V
-9 -205 V
-63 -201 V
5373 2009 L
5210 1835 L
5003 1683 L
4759 1557 L
-273 -95 V
-294 -61 V
-305 -26 V
-307 10 V
-300 46 V
-283 80 V
-257 113 V
-224 140 V
-183 165 V
-136 183 V
-86 197 V
-33 204 V
22 204 V
75 198 V
127 187 V
174 169 V
216 146 V
251 118 V
278 87 V
297 53 V
307 17 V
306 -19 V
296 -55 V
278 -88 V
250 -120 V
214 -147 V
172 -170 V
124 -187 V
73 -200 V
20 -204 V
-36 -204 V
-88 -197 V
5295 1918 L
5109 1754 L
4883 1614 L
4624 1503 L
-285 -79 V
-301 -44 V
-309 -9 V
-306 28 V
-294 64 V
-273 97 V
-243 127 V
-205 154 V
-162 176 V
-113 192 V
-60 202 V
-6 207 V
49 204 V
102 195 V
152 181 V
197 159 V
237 135 V
269 104 V
292 71 V
307 36 V
311 -1 V
307 -37 V
292 -73 V
268 -105 V
236 -136 V
197 -162 V
152 -182 V
100 -197 V
48 -205 V
-8 -209 V
-63 -204 V
5397 1998 L
5232 1821 L
5022 1665 L
4775 1536 L
-278 -98 V
-299 -64 V
-312 -28 V
-315 8 V
-309 46 V
-292 81 V
-267 114 V
-233 143 V
-192 169 V
-145 190 V
-93 203 V
-37 212 V
19 213 V
75 209 V
129 196 V
180 179 V
225 155 V
262 125 V
293 94 V
313 57 V
323 19 V
324 -19 V
314 -57 V
294 -93 V
264 -126 V
227 -155 V
183 -180 V
131 -198 V
77 -210 V
21 -216 V
-37 -215 V
-93 -208 V
5382 1889 L
5188 1715 L
4951 1566 L
4679 1447 L
-299 -86 V
-318 -50 V
-326 -12 V
-326 26 V
-314 63 V
-294 99 V
-264 132 V
-227 162 V
-182 185 V
-130 205 V
-75 218 V
-16 224 V
43 224 V
102 216 V
158 201 V
209 181 V
254 153 V
293 122 V
321 87 V
341 47 V
349 6 V
346 -35 V
333 -75 V
309 -113 V
275 -148 V
233 -179 V
183 -203 V
126 -223 V
66 -235 V
3 -239 V
-59 -237 V
5672 1935 L
5495 1723 L
5264 1534 L
4986 1373 L
4668 1245 L
-348 -89 V
-369 -48 V
-379 -5 V
-378 40 V
-364 84 V
-338 126 V
-303 166 V
-255 199 V
-200 229 V
-137 250 V
-69 264 V
3 270 V
74 267 V
145 255 V
3817 1147 M
-364 31 V
-346 74 V
-320 111 V
-283 147 V
-237 176 V
-186 200 V
-130 217 V
-69 226 V
-11 226 V
46 223 V
103 216 V
157 200 V
207 178 V
250 150 V
284 117 V
308 83 V
324 45 V
327 7 V
324 -31 V
310 -67 V
288 -103 V
255 -134 V
215 -162 V
169 -183 V
118 -200 V
63 -209 V
7 -213 V
-49 -210 V
5474 2061 L
5320 1875 L
5120 1711 L
4881 1573 L
4609 1465 L
-296 -74 V
-309 -38 V
-314 -2 V
-310 35 V
-295 71 V
-271 104 V
-240 134 V
-200 159 V
-155 181 V
-105 195 V
-52 205 V
4 207 V
57 203 V
110 193 V
160 177 V
203 156 V
241 129 V
272 99 V
293 66 V
305 30 V
309 -6 V
302 -42 V
286 -76 V
261 -109 V
229 -138 V
188 -163 V
143 -182 V
92 -195 V
39 -204 V
-15 -204 V
-69 -200 V
5351 1987 L
5182 1816 L
4971 1667 L
4724 1545 L
-276 -91 V
-295 -57 V
-305 -21 V
-307 14 V
-298 50 V
-280 85 V
-253 116 V
-219 143 V
-178 168 V
-130 185 V
-80 198 V
-25 204 V
28 204 V
82 197 V
133 185 V
179 167 V
221 142 V
255 115 V
282 83 V
299 49 V
307 12 V
306 -23 V
295 -59 V
275 -93 V
247 -123 V
209 -151 V
167 -173 V
119 -189 V
67 -201 V
12 -206 V
-42 -204 V
-95 -195 V
5278 1894 L
5087 1732 L
4856 1595 L
4592 1487 L
-289 -75 V
-303 -40 V
-310 -4 V
-307 32 V
-293 68 V
-271 102 V
-239 131 V
-202 158 V
-157 179 V
-107 195 V
-53 204 V
1 207 V
56 205 V
109 194 V
158 179 V
204 158 V
242 131 V
274 101 V
296 67 V
309 31 V
312 -5 V
307 -42 V
291 -77 V
267 -110 V
233 -139 V
194 -165 V
147 -185 V
96 -199 V
43 -209 V
-13 -210 V
-69 -205 V
5397 1969 L
5226 1791 L
5010 1636 L
4756 1508 L
-284 -96 V
-306 -62 V
-318 -25 V
-320 12 V
-313 51 V
-295 86 V
-267 120 V
-233 149 V
-189 175 V
-139 195 V
-86 209 V
-30 215 V
29 216 V
85 209 V
140 196 V
189 176 V
234 151 V
269 121 V
297 88 V
316 51 V
324 14 V
323 -25 V
311 -61 V
291 -97 V
260 -130 V
224 -157 V
178 -181 V
129 -200 V
75 -211 V
19 -218 V
-39 -216 V
-95 -210 V
5386 1857 L
5188 1681 L
4946 1530 L
4667 1409 L
-307 -87 V
-327 -50 V
-337 -11 V
-335 29 V
-324 68 V
-303 105 V
-271 140 V
-230 169 V
-184 195 V
-129 214 V
-71 227 V
-9 232 V
52 231 V
113 222 V
169 206 V
223 183 V
268 156 V
306 121 V
334 84 V
352 44 V
360 2 V
356 -39 V
342 -81 V
318 -118 V
284 -154 V
242 -185 V
191 -212 V
135 -232 V
73 -246 V
8 -253 V
-59 -252 V
5781 1874 L
5591 1648 L
5342 1446 L
5041 1276 L
4697 1143 L
-376 -91 V
-397 -45 V
-406 2 V
-400 50 V
-384 97 V
% End plot #1
stroke
2.000 UL
LTb
LCb setrgbcolor
1.000 UL
LTB
LCb setrgbcolor
686 4619 N
686 448 L
6261 0 V
0 4171 V
-6261 0 V
Z stroke
1.000 UP
1.000 UL
LTb
LCb setrgbcolor
stroke
grestore
end
showpage
%%Trailer
%%DocumentFonts: Helvetica
%%Pages: 1
