\relax 
\providecommand\hyper@newdestlabel[2]{}
\@writefile{toc}{\contentsline {section}{\numberline {10}Rotor Blade Trim}{53}{section.10}}
\@writefile{toc}{\contentsline {subsection}{\numberline {10.1}Rigid Blade Trim}{53}{subsection.10.1}}
\@writefile{toc}{\contentsline {subsection}{\numberline {10.2}Elastic Blade Trim}{53}{subsection.10.2}}
\@writefile{toc}{\contentsline {subsubsection}{\numberline {10.2.1}Newton's Method for Solving Nonlinear System of Equations}{53}{subsubsection.10.2.1}}
\@writefile{toc}{\contentsline {subsubsection}{\numberline {10.2.2}Trim Equations}{54}{subsubsection.10.2.2}}
\@writefile{toc}{\contentsline {paragraph}{Vertical Force:}{54}{section*.55}}
\@writefile{toc}{\contentsline {paragraph}{Longitudinal Force:}{54}{section*.56}}
\@writefile{toc}{\contentsline {paragraph}{Lateral Force:}{54}{section*.57}}
\@writefile{toc}{\contentsline {paragraph}{Pitching Moment}{54}{section*.58}}
\@writefile{toc}{\contentsline {paragraph}{Rolling Moment}{54}{section*.59}}
\@writefile{toc}{\contentsline {subsubsection}{\numberline {10.2.3}Procedure}{57}{subsubsection.10.2.3}}
\@setckpt{chapter7}{
\setcounter{page}{58}
\setcounter{equation}{27}
\setcounter{enumi}{8}
\setcounter{enumii}{0}
\setcounter{enumiii}{0}
\setcounter{enumiv}{0}
\setcounter{footnote}{0}
\setcounter{mpfootnote}{0}
\setcounter{part}{0}
\setcounter{section}{10}
\setcounter{subsection}{2}
\setcounter{subsubsection}{3}
\setcounter{paragraph}{0}
\setcounter{subparagraph}{0}
\setcounter{figure}{0}
\setcounter{table}{3}
\setcounter{parentequation}{0}
\setcounter{float@type}{4}
\setcounter{lips@count}{0}
\setcounter{ContinuedFloat}{0}
\setcounter{KVtest}{1}
\setcounter{subfigure}{0}
\setcounter{subfigure@save}{0}
\setcounter{lofdepth}{1}
\setcounter{subtable}{0}
\setcounter{subtable@save}{0}
\setcounter{lotdepth}{1}
\setcounter{Item}{15}
\setcounter{Hfootnote}{0}
\setcounter{bookmark@seq@number}{61}
\setcounter{section@level}{3}
}
