\relax 
\providecommand\hyper@newdestlabel[2]{}
\@writefile{toc}{\contentsline {section}{\numberline {18}Other Types of Teetering Rotor}{93}{section.18}}
\@writefile{toc}{\contentsline {subsection}{\numberline {18.1}Underslung Teetering}{93}{subsection.18.1}}
\@writefile{lof}{\contentsline {figure}{\numberline {18.1}{\ignorespaces Model of Underslung Teetering Rotor.\relax }}{93}{figure.caption.128}}
\@writefile{lof}{\contentsline {figure}{\numberline {18.2}{\ignorespaces Total tip displacement with Non-Linear Aerodynamic Forcing.\relax }}{94}{figure.caption.129}}
\@writefile{toc}{\contentsline {subsection}{\numberline {18.2}Hinged Teetering}{96}{subsection.18.2}}
\@writefile{lof}{\contentsline {figure}{\numberline {18.3}{\ignorespaces Hinged Teetering Model (Source - Ravi Lumba)\relax }}{96}{figure.caption.130}}
\@writefile{lof}{\contentsline {figure}{\numberline {18.4}{\ignorespaces Mode shapes of the hinged teetering rotor.\relax }}{97}{figure.caption.131}}
\@setckpt{chapter13}{
\setcounter{page}{98}
\setcounter{equation}{16}
\setcounter{enumi}{11}
\setcounter{enumii}{0}
\setcounter{enumiii}{0}
\setcounter{enumiv}{0}
\setcounter{footnote}{0}
\setcounter{mpfootnote}{0}
\setcounter{part}{0}
\setcounter{section}{18}
\setcounter{subsection}{2}
\setcounter{subsubsection}{0}
\setcounter{paragraph}{0}
\setcounter{subparagraph}{0}
\setcounter{figure}{4}
\setcounter{table}{14}
\setcounter{parentequation}{0}
\setcounter{float@type}{4}
\setcounter{lips@count}{0}
\setcounter{ContinuedFloat}{0}
\setcounter{KVtest}{1}
\setcounter{subfigure}{0}
\setcounter{subfigure@save}{0}
\setcounter{lofdepth}{1}
\setcounter{subtable}{0}
\setcounter{subtable@save}{0}
\setcounter{lotdepth}{1}
\setcounter{Item}{35}
\setcounter{Hfootnote}{0}
\setcounter{bookmark@seq@number}{99}
\setcounter{section@level}{2}
}
