\relax 
\providecommand\hyper@newdestlabel[2]{}
\@writefile{toc}{\contentsline {section}{\numberline {9}Blade Force and Moment Calculation}{48}{section.9}}
\@writefile{toc}{\contentsline {subsection}{\numberline {9.1}Aerodynamic Forces}{48}{subsection.9.1}}
\@writefile{toc}{\contentsline {subsection}{\numberline {9.2}Inertial Forces}{48}{subsection.9.2}}
\@writefile{toc}{\contentsline {subsection}{\numberline {9.3}Blade Shears and Moments}{50}{subsection.9.3}}
\@writefile{toc}{\contentsline {subsection}{\numberline {9.4}Hub Loads}{51}{subsection.9.4}}
\@setckpt{chapter8}{
\setcounter{page}{53}
\setcounter{equation}{35}
\setcounter{enumi}{7}
\setcounter{enumii}{0}
\setcounter{enumiii}{0}
\setcounter{enumiv}{0}
\setcounter{footnote}{0}
\setcounter{mpfootnote}{0}
\setcounter{part}{0}
\setcounter{section}{9}
\setcounter{subsection}{4}
\setcounter{subsubsection}{0}
\setcounter{paragraph}{0}
\setcounter{subparagraph}{0}
\setcounter{figure}{0}
\setcounter{table}{3}
\setcounter{parentequation}{0}
\setcounter{float@type}{4}
\setcounter{lips@count}{0}
\setcounter{ContinuedFloat}{0}
\setcounter{KVtest}{1}
\setcounter{subfigure}{0}
\setcounter{subfigure@save}{0}
\setcounter{lofdepth}{1}
\setcounter{subtable}{0}
\setcounter{subtable@save}{0}
\setcounter{lotdepth}{1}
\setcounter{Item}{7}
\setcounter{Hfootnote}{0}
\setcounter{bookmark@seq@number}{55}
\setcounter{section@level}{2}
}
