\relax 
\providecommand\hyper@newdestlabel[2]{}
\@writefile{toc}{\contentsline {section}{\numberline {17}Teetering Rotor - Superposition Method}{88}{section.17}}
\@writefile{toc}{\contentsline {subsection}{\numberline {17.1}Superposition Method vs Single Beam}{89}{subsection.17.1}}
\@writefile{lof}{\contentsline {figure}{\numberline {17.1}{\ignorespaces Comparison of tip displacements for Single beam and Superposition method.\relax }}{89}{figure.caption.120}}
\@writefile{lot}{\contentsline {table}{\numberline {14}{\ignorespaces Trim values and force coefficients from superposition method.\relax }}{90}{table.caption.121}}
\@writefile{toc}{\contentsline {subsection}{\numberline {17.2}Root Shears}{90}{subsection.17.2}}
\@writefile{lof}{\contentsline {figure}{\numberline {17.2}{\ignorespaces Root shears for non-linear aerodynamics for Teetering rotor. The figure on the left corresponds to spanwise blade root shear and on the right corresponds to chordwise blade root shear.\relax }}{90}{figure.caption.122}}
\@writefile{lof}{\contentsline {figure}{\numberline {17.3}{\ignorespaces Blade root shear in the vertical direction for Teetering rotor.\relax }}{90}{figure.caption.123}}
\@writefile{toc}{\contentsline {subsection}{\numberline {17.3}Root Moments}{91}{subsection.17.3}}
\@writefile{lof}{\contentsline {figure}{\numberline {17.4}{\ignorespaces Root moments for non-linear aerodynamics for Teetering rotor. The figure on the left corresponds to torsional blade root moment and on the right corresponds to flapping blade root moment.\relax }}{91}{figure.caption.124}}
\@writefile{lof}{\contentsline {figure}{\numberline {17.5}{\ignorespaces Lagging Blade root moment for linear aerodynamics for Teetering rotor.\relax }}{91}{figure.caption.125}}
\@writefile{toc}{\contentsline {subsection}{\numberline {17.4}Hub Forces and Moments}{91}{subsection.17.4}}
\@writefile{lof}{\contentsline {figure}{\numberline {17.6}{\ignorespaces Hub forces for nonlinear aerodynamics for Teetering rotor. The figure on the left corresponds to Longitudinal and lateral hub forces and on the right corresponds to vertical hub force.\relax }}{92}{figure.caption.126}}
\@writefile{lof}{\contentsline {figure}{\numberline {17.7}{\ignorespaces Hub Moments for nonlinear aerodynamics for Teetering rotor. The figure on the left corresponds to Rolling and Pitching hub moments and on the right corresponds to Yawing hub moment.\relax }}{92}{figure.caption.127}}
\@setckpt{chapter16}{
\setcounter{page}{93}
\setcounter{equation}{8}
\setcounter{enumi}{11}
\setcounter{enumii}{0}
\setcounter{enumiii}{0}
\setcounter{enumiv}{0}
\setcounter{footnote}{0}
\setcounter{mpfootnote}{0}
\setcounter{part}{0}
\setcounter{section}{17}
\setcounter{subsection}{4}
\setcounter{subsubsection}{0}
\setcounter{paragraph}{0}
\setcounter{subparagraph}{0}
\setcounter{figure}{7}
\setcounter{table}{14}
\setcounter{parentequation}{0}
\setcounter{float@type}{4}
\setcounter{lips@count}{0}
\setcounter{ContinuedFloat}{0}
\setcounter{KVtest}{1}
\setcounter{subfigure}{0}
\setcounter{subfigure@save}{0}
\setcounter{lofdepth}{1}
\setcounter{subtable}{0}
\setcounter{subtable@save}{0}
\setcounter{lotdepth}{1}
\setcounter{Item}{35}
\setcounter{Hfootnote}{0}
\setcounter{bookmark@seq@number}{96}
\setcounter{section@level}{2}
}
