\relax 
\providecommand\hyper@newdestlabel[2]{}
\@writefile{toc}{\contentsline {section}{\numberline {7}Aerodynamic Modeling}{41}{section.7}}
\@writefile{toc}{\contentsline {subsection}{\numberline {7.1}Aerodynamic Reference Frame}{41}{subsection.7.1}}
\@writefile{lof}{\contentsline {figure}{\numberline {7.1}{\ignorespaces Cross sectional coordinate systems. Classical BEMT blade section (left) and chord aligned cross section used in this analysis (right)\relax }}{41}{figure.caption.54}}
\@writefile{toc}{\contentsline {subsection}{\numberline {7.2}Aerodynamic Velocities}{41}{subsection.7.2}}
\@writefile{toc}{\contentsline {subsection}{\numberline {7.3}Quasi-Steady Airloads}{43}{subsection.7.3}}
\@setckpt{chapter0}{
\setcounter{page}{45}
\setcounter{equation}{21}
\setcounter{enumi}{0}
\setcounter{enumii}{0}
\setcounter{enumiii}{0}
\setcounter{enumiv}{0}
\setcounter{footnote}{0}
\setcounter{mpfootnote}{0}
\setcounter{part}{0}
\setcounter{section}{7}
\setcounter{subsection}{3}
\setcounter{subsubsection}{0}
\setcounter{paragraph}{0}
\setcounter{subparagraph}{0}
\setcounter{figure}{1}
\setcounter{table}{3}
\setcounter{parentequation}{0}
\setcounter{float@type}{4}
\setcounter{lips@count}{0}
\setcounter{ContinuedFloat}{0}
\setcounter{KVtest}{1}
\setcounter{subfigure}{0}
\setcounter{subfigure@save}{0}
\setcounter{lofdepth}{1}
\setcounter{subtable}{0}
\setcounter{subtable@save}{0}
\setcounter{lotdepth}{1}
\setcounter{Item}{0}
\setcounter{Hfootnote}{0}
\setcounter{bookmark@seq@number}{45}
\setcounter{section@level}{2}
}
