\relax 
\providecommand\hyper@newdestlabel[2]{}
\@writefile{toc}{\contentsline {section}{\numberline {13}Articulated Rotor Results}{67}{section.13}}
\newlabel{my-label}{{\caption@xref {my-label}{ on input line 11}}{67}{Articulated Rotor Results}{table.caption.79}{}}
\@writefile{lot}{\contentsline {table}{\numberline {8}{\ignorespaces Trim results for Non-Linear Aerodynamic forcing for Articulated rotor.\relax }}{67}{table.caption.79}}
\newlabel{my-label}{{\caption@xref {my-label}{ on input line 28}}{67}{Articulated Rotor Results}{table.caption.80}{}}
\@writefile{lot}{\contentsline {table}{\numberline {9}{\ignorespaces Forces and Moments at trimmed state for Non-Linear Aerodynamic forcing.\relax }}{67}{table.caption.80}}
\@writefile{toc}{\contentsline {subsection}{\numberline {13.1}Tip Displacement}{67}{subsection.13.1}}
\@writefile{lof}{\contentsline {figure}{\numberline {13.1}{\ignorespaces Tip displacement with Non-Linear Aerodynamic Forcing.\relax }}{67}{figure.caption.81}}
\@writefile{toc}{\contentsline {subsection}{\numberline {13.2}Root Shears}{68}{subsection.13.2}}
\@writefile{lof}{\contentsline {figure}{\numberline {13.2}{\ignorespaces Root shears for non-linear aerodynamics for Articulated rotor. The figure on the left corresponds to spanwise blade root shear and on the right corresponds to chordwise blade root shear.\relax }}{68}{figure.caption.82}}
\@writefile{lof}{\contentsline {figure}{\numberline {13.3}{\ignorespaces Blade root shear in the vertical direction for Articulated rotor.\relax }}{68}{figure.caption.83}}
\@writefile{toc}{\contentsline {subsection}{\numberline {13.3}Root Moments}{68}{subsection.13.3}}
\@writefile{lof}{\contentsline {figure}{\numberline {13.4}{\ignorespaces Root moments for non-linear aerodynamics for Articulated rotor. The figure on the left corresponds to torsional blade root moment and on the right corresponds to flapping blade root moment.\relax }}{69}{figure.caption.84}}
\@writefile{lof}{\contentsline {figure}{\numberline {13.5}{\ignorespaces Lagging Blade root moment for non-linear aerodynamics for Articulated rotor.\relax }}{69}{figure.caption.85}}
\@writefile{toc}{\contentsline {subsection}{\numberline {13.4}Hub Forces and Moments}{69}{subsection.13.4}}
\@writefile{lof}{\contentsline {figure}{\numberline {13.6}{\ignorespaces Hub forces for nonlinear aerodynamics for Articulated rotor. The figure on the left corresponds to Longitudinal and lateral hub forces and on the right corresponds to vertical hub force.\relax }}{70}{figure.caption.86}}
\@writefile{lof}{\contentsline {figure}{\numberline {13.7}{\ignorespaces Hub Moments for nonlinear aerodynamics for Articulated rotor. The figure on the left corresponds to Rolling and Pitching hub moments and on the right corresponds to Yawing hub moment.\relax }}{70}{figure.caption.87}}
\@setckpt{chapter5}{
\setcounter{page}{71}
\setcounter{equation}{0}
\setcounter{enumi}{8}
\setcounter{enumii}{0}
\setcounter{enumiii}{0}
\setcounter{enumiv}{0}
\setcounter{footnote}{0}
\setcounter{mpfootnote}{0}
\setcounter{part}{0}
\setcounter{section}{13}
\setcounter{subsection}{4}
\setcounter{subsubsection}{0}
\setcounter{paragraph}{0}
\setcounter{subparagraph}{0}
\setcounter{figure}{7}
\setcounter{table}{9}
\setcounter{parentequation}{0}
\setcounter{float@type}{4}
\setcounter{lips@count}{0}
\setcounter{ContinuedFloat}{0}
\setcounter{KVtest}{1}
\setcounter{subfigure}{0}
\setcounter{subfigure@save}{0}
\setcounter{lofdepth}{1}
\setcounter{subtable}{0}
\setcounter{subtable@save}{0}
\setcounter{lotdepth}{1}
\setcounter{Item}{15}
\setcounter{Hfootnote}{0}
\setcounter{bookmark@seq@number}{76}
\setcounter{section@level}{2}
}
