\relax 
\providecommand\hyper@newdestlabel[2]{}
\@writefile{toc}{\contentsline {section}{\numberline {11}Linear Aerodynamic Results}{58}{section.11}}
\newlabel{my-label}{{\caption@xref {my-label}{ on input line 9}}{58}{Linear Aerodynamic Results}{table.caption.60}{}}
\@writefile{lot}{\contentsline {table}{\numberline {4}{\ignorespaces Trim results for Non-Linear Aerodynamic forcing for different advance ratios.\relax }}{58}{table.caption.60}}
\newlabel{my-label}{{\caption@xref {my-label}{ on input line 26}}{58}{Linear Aerodynamic Results}{table.caption.61}{}}
\@writefile{lot}{\contentsline {table}{\numberline {5}{\ignorespaces Forces and Moments at trimmed state for Non-Linear Aerodynamic forcing\relax }}{58}{table.caption.61}}
\@writefile{toc}{\contentsline {subsection}{\numberline {11.1}Tip Displacement}{58}{subsection.11.1}}
\@writefile{lof}{\contentsline {figure}{\numberline {11.1}{\ignorespaces Tip displacement with Linear Aerodynamic Forcing.\relax }}{58}{figure.caption.62}}
\@writefile{lof}{\contentsline {figure}{\numberline {11.2}{\ignorespaces Tip displacement harmonics with Linear Aerodynamic Forcing.\relax }}{59}{figure.caption.63}}
\@writefile{toc}{\contentsline {subsection}{\numberline {11.2}Root Shears}{59}{subsection.11.2}}
\@writefile{lof}{\contentsline {figure}{\numberline {11.3}{\ignorespaces Root shears for linear aerodynamics. The figure on the left corresponds to spanwise blade root shear and on the right corresponds to chordwise blade root shear.\relax }}{59}{figure.caption.64}}
\@writefile{lof}{\contentsline {figure}{\numberline {11.4}{\ignorespaces Blade root shear in the vertical direction for Linear Aerodynamic Forcing.\relax }}{60}{figure.caption.65}}
\@writefile{toc}{\contentsline {subsection}{\numberline {11.3}Root Moments}{60}{subsection.11.3}}
\@writefile{lof}{\contentsline {figure}{\numberline {11.5}{\ignorespaces Root moments for linear aerodynamics. The figure on the left corresponds to torsional blade root moment and on the right corresponds to flapping blade root moment.\relax }}{60}{figure.caption.66}}
\@writefile{lof}{\contentsline {figure}{\numberline {11.6}{\ignorespaces Lagging Blade root moment for linear aerodynamics.\relax }}{61}{figure.caption.67}}
\@writefile{toc}{\contentsline {subsection}{\numberline {11.4}Hub Forces and Moments}{61}{subsection.11.4}}
\@writefile{lof}{\contentsline {figure}{\numberline {11.7}{\ignorespaces Hub forces for linear aerodynamics. The figure on the left corresponds to Longitudinal and lateral hub forces and on the right corresponds to vertical hub force.\relax }}{61}{figure.caption.68}}
\@writefile{lof}{\contentsline {figure}{\numberline {11.8}{\ignorespaces Hub Moments for linear aerodynamics. The figure on the left corresponds to Rolling and Pitching hub moments and on the right corresponds to Yawing hub moment.\relax }}{62}{figure.caption.69}}
\@setckpt{chapter2}{
\setcounter{page}{63}
\setcounter{equation}{2}
\setcounter{enumi}{8}
\setcounter{enumii}{0}
\setcounter{enumiii}{0}
\setcounter{enumiv}{0}
\setcounter{footnote}{0}
\setcounter{mpfootnote}{0}
\setcounter{part}{0}
\setcounter{section}{11}
\setcounter{subsection}{4}
\setcounter{subsubsection}{0}
\setcounter{paragraph}{0}
\setcounter{subparagraph}{0}
\setcounter{figure}{8}
\setcounter{table}{5}
\setcounter{parentequation}{0}
\setcounter{float@type}{4}
\setcounter{lips@count}{0}
\setcounter{ContinuedFloat}{0}
\setcounter{KVtest}{1}
\setcounter{subfigure}{0}
\setcounter{subfigure@save}{0}
\setcounter{lofdepth}{1}
\setcounter{subtable}{0}
\setcounter{subtable@save}{0}
\setcounter{lotdepth}{1}
\setcounter{Item}{15}
\setcounter{Hfootnote}{0}
\setcounter{bookmark@seq@number}{66}
\setcounter{section@level}{2}
}
