\relax 
\providecommand\hyper@newdestlabel[2]{}
\@writefile{toc}{\contentsline {section}{\numberline {16}Teetering Rotor Results}{83}{section.16}}
\newlabel{my-label}{{\caption@xref {my-label}{ on input line 7}}{83}{Teetering Rotor Results}{table.caption.109}{}}
\@writefile{lot}{\contentsline {table}{\numberline {12}{\ignorespaces Trim results for Non-Linear Aerodynamic forcing for Teetering rotor.\relax }}{83}{table.caption.109}}
\newlabel{my-label}{{\caption@xref {my-label}{ on input line 26}}{83}{Teetering Rotor Results}{table.caption.110}{}}
\@writefile{lot}{\contentsline {table}{\numberline {13}{\ignorespaces Forces and Moments at trimmed state for Non-Linear Aerodynamic forcing.\relax }}{83}{table.caption.110}}
\@writefile{toc}{\contentsline {subsection}{\numberline {16.1}Tip Displacement}{83}{subsection.16.1}}
\@writefile{lof}{\contentsline {figure}{\numberline {16.1}{\ignorespaces Tip displacement with Non-Linear Aerodynamic Forcing.\relax }}{83}{figure.caption.111}}
\@writefile{lof}{\contentsline {figure}{\numberline {16.2}{\ignorespaces Tip Displacements for Hingeless, Articulated and Teetering Rotors. The figure on the left corresponds to $\mu = 0.3$ and the figure on right corresponds to $\mu =0.1$.\relax }}{84}{figure.caption.112}}
\@writefile{lof}{\contentsline {figure}{\numberline {16.3}{\ignorespaces Root slope of different rotors.\relax }}{84}{figure.caption.113}}
\@writefile{toc}{\contentsline {subsection}{\numberline {16.2}Root Shears}{85}{subsection.16.2}}
\@writefile{lof}{\contentsline {figure}{\numberline {16.4}{\ignorespaces Root shears for non-linear aerodynamics for Teetering rotor. The figure on the left corresponds to spanwise blade root shear and on the right corresponds to chordwise blade root shear.\relax }}{85}{figure.caption.114}}
\@writefile{lof}{\contentsline {figure}{\numberline {16.5}{\ignorespaces Blade root shear in the vertical direction for Teetering rotor.\relax }}{85}{figure.caption.115}}
\@writefile{toc}{\contentsline {subsection}{\numberline {16.3}Root Moments}{85}{subsection.16.3}}
\@writefile{lof}{\contentsline {figure}{\numberline {16.6}{\ignorespaces Root moments for non-linear aerodynamics for Teetering rotor. The figure on the left corresponds to torsional blade root moment and on the right corresponds to flapping blade root moment.\relax }}{86}{figure.caption.116}}
\@writefile{lof}{\contentsline {figure}{\numberline {16.7}{\ignorespaces Lagging Blade root moment for linear aerodynamics for Teetering rotor.\relax }}{86}{figure.caption.117}}
\@writefile{toc}{\contentsline {subsection}{\numberline {16.4}Hub Forces and Moments}{86}{subsection.16.4}}
\@writefile{lof}{\contentsline {figure}{\numberline {16.8}{\ignorespaces Hub forces for nonlinear aerodynamics for Teetering rotor. The figure on the left corresponds to Longitudinal and lateral hub forces and on the right corresponds to vertical hub force.\relax }}{87}{figure.caption.118}}
\@writefile{lof}{\contentsline {figure}{\numberline {16.9}{\ignorespaces Hub Moments for nonlinear aerodynamics for Teetering rotor. The figure on the left corresponds to Rolling and Pitching hub moments and on the right corresponds to Yawing hub moment.\relax }}{87}{figure.caption.119}}
\@setckpt{chapter12}{
\setcounter{page}{88}
\setcounter{equation}{0}
\setcounter{enumi}{2}
\setcounter{enumii}{0}
\setcounter{enumiii}{0}
\setcounter{enumiv}{0}
\setcounter{footnote}{0}
\setcounter{mpfootnote}{0}
\setcounter{part}{0}
\setcounter{section}{16}
\setcounter{subsection}{4}
\setcounter{subsubsection}{0}
\setcounter{paragraph}{0}
\setcounter{subparagraph}{0}
\setcounter{figure}{9}
\setcounter{table}{13}
\setcounter{parentequation}{0}
\setcounter{float@type}{4}
\setcounter{lips@count}{0}
\setcounter{ContinuedFloat}{0}
\setcounter{KVtest}{1}
\setcounter{subfigure}{0}
\setcounter{subfigure@save}{0}
\setcounter{lofdepth}{1}
\setcounter{subtable}{0}
\setcounter{subtable@save}{0}
\setcounter{lotdepth}{1}
\setcounter{Item}{24}
\setcounter{Hfootnote}{0}
\setcounter{bookmark@seq@number}{91}
\setcounter{section@level}{2}
}
