\relax 
\providecommand\hyper@newdestlabel[2]{}
\@writefile{toc}{\contentsline {section}{\numberline {21}Appendix}{105}{section.21}}
\@writefile{toc}{\contentsline {subsection}{\numberline {21.1}Derivation of Aerodynamic Velocities}{105}{subsection.21.1}}
\@writefile{toc}{\contentsline {subsection}{\numberline {21.2}Derivation of Aerodynamic Forces}{105}{subsection.21.2}}
\@writefile{toc}{\contentsline {subsection}{\numberline {21.3}Derivation of Inertial Loads}{105}{subsection.21.3}}
\@setckpt{chapter10}{
\setcounter{page}{106}
\setcounter{equation}{0}
\setcounter{enumi}{6}
\setcounter{enumii}{0}
\setcounter{enumiii}{0}
\setcounter{enumiv}{0}
\setcounter{footnote}{0}
\setcounter{mpfootnote}{0}
\setcounter{part}{0}
\setcounter{section}{21}
\setcounter{subsection}{3}
\setcounter{subsubsection}{0}
\setcounter{paragraph}{0}
\setcounter{subparagraph}{0}
\setcounter{figure}{0}
\setcounter{table}{14}
\setcounter{parentequation}{0}
\setcounter{float@type}{4}
\setcounter{lips@count}{0}
\setcounter{ContinuedFloat}{0}
\setcounter{KVtest}{1}
\setcounter{subfigure}{0}
\setcounter{subfigure@save}{0}
\setcounter{lofdepth}{1}
\setcounter{subtable}{0}
\setcounter{subtable@save}{0}
\setcounter{lotdepth}{1}
\setcounter{Item}{41}
\setcounter{Hfootnote}{0}
\setcounter{bookmark@seq@number}{107}
\setcounter{section@level}{2}
}
