\relax 
\providecommand\hyper@newdestlabel[2]{}
\@writefile{toc}{\contentsline {section}{\numberline {15}Free Wake}{75}{section.15}}
\@writefile{toc}{\contentsline {subsection}{\numberline {15.1}Free Wake Parameters}{76}{subsection.15.1}}
\newlabel{my-label}{{\caption@xref {my-label}{ on input line 58}}{76}{Free Wake Parameters}{table.caption.97}{}}
\newlabel{my-label}{{\caption@xref {my-label}{ on input line 92}}{77}{Free Wake Parameters}{table.caption.98}{}}
\@writefile{toc}{\contentsline {subsection}{\numberline {15.2}Hover}{77}{subsection.15.2}}
\@writefile{lof}{\contentsline {figure}{\numberline {15.1}{\ignorespaces Inflow and Bound Circulation distribution on the blade in hover.\relax }}{78}{figure.caption.99}}
\@writefile{lof}{\contentsline {figure}{\numberline {15.2}{\ignorespaces Angle of Attack and Lift Coefficient distribution on the blade in hover.\relax }}{78}{figure.caption.100}}
\@writefile{lof}{\contentsline {figure}{\numberline {15.3}{\ignorespaces Side and Top View of the Wake Geometry in Hover.\relax }}{79}{figure.caption.101}}
\@writefile{lof}{\contentsline {figure}{\numberline {15.4}{\ignorespaces Rear View of Wake Geometry in Hover.\relax }}{79}{figure.caption.102}}
\@writefile{lof}{\contentsline {figure}{\numberline {15.5}{\ignorespaces Vortex Ring Analogy.\relax }}{79}{figure.caption.103}}
\@writefile{toc}{\contentsline {subsection}{\numberline {15.3}Forward Flight}{80}{subsection.15.3}}
\@writefile{lof}{\contentsline {figure}{\numberline {15.6}{\ignorespaces Inflow and Bound Circulation distribution on the blade in forward flight.\relax }}{80}{figure.caption.104}}
\@writefile{lof}{\contentsline {figure}{\numberline {15.7}{\ignorespaces Side and Top View of the Wake Geometry in forward flight.\relax }}{80}{figure.caption.105}}
\@writefile{lof}{\contentsline {figure}{\numberline {15.8}{\ignorespaces Rear View of Wake Geometry in Forward Flight.\relax }}{81}{figure.caption.106}}
\@writefile{toc}{\contentsline {subsection}{\numberline {15.4}BEMT vs FREE WAKE}{81}{subsection.15.4}}
\@writefile{lof}{\contentsline {figure}{\numberline {15.9}{\ignorespaces Power Polar for Hover.\relax }}{81}{figure.caption.107}}
\@writefile{lof}{\contentsline {figure}{\numberline {15.10}{\ignorespaces Variation of $\kappa $ and Figure of Merit with $\frac  {C_T}{\sigma }$ in Hover.\relax }}{82}{figure.caption.108}}
\@setckpt{chapter15}{
\setcounter{page}{83}
\setcounter{equation}{4}
\setcounter{enumi}{2}
\setcounter{enumii}{0}
\setcounter{enumiii}{0}
\setcounter{enumiv}{0}
\setcounter{footnote}{0}
\setcounter{mpfootnote}{0}
\setcounter{part}{0}
\setcounter{section}{15}
\setcounter{subsection}{4}
\setcounter{subsubsection}{0}
\setcounter{paragraph}{0}
\setcounter{subparagraph}{0}
\setcounter{figure}{10}
\setcounter{table}{11}
\setcounter{parentequation}{0}
\setcounter{float@type}{4}
\setcounter{lips@count}{0}
\setcounter{ContinuedFloat}{0}
\setcounter{KVtest}{1}
\setcounter{subfigure}{0}
\setcounter{subfigure@save}{0}
\setcounter{lofdepth}{1}
\setcounter{subtable}{0}
\setcounter{subtable@save}{0}
\setcounter{lotdepth}{1}
\setcounter{Item}{24}
\setcounter{Hfootnote}{0}
\setcounter{bookmark@seq@number}{86}
\setcounter{section@level}{2}
}
