\relax 
\providecommand\hyper@newdestlabel[2]{}
\@writefile{toc}{\contentsline {section}{\numberline {12}Non-Linear Aerodynamic Results}{63}{section.12}}
\newlabel{my-label}{{\caption@xref {my-label}{ on input line 7}}{63}{Non-Linear Aerodynamic Results}{table.caption.70}{}}
\@writefile{lot}{\contentsline {table}{\numberline {6}{\ignorespaces Trim results for Non-Linear Aerodynamic forcing.\relax }}{63}{table.caption.70}}
\newlabel{my-label}{{\caption@xref {my-label}{ on input line 24}}{63}{Non-Linear Aerodynamic Results}{table.caption.71}{}}
\@writefile{lot}{\contentsline {table}{\numberline {7}{\ignorespaces Forces and Moments at trimmed state for Non-Linear Aerodynamic forcing\relax }}{63}{table.caption.71}}
\@writefile{toc}{\contentsline {subsection}{\numberline {12.1}Tip Displacement}{63}{subsection.12.1}}
\@writefile{lof}{\contentsline {figure}{\numberline {12.1}{\ignorespaces Tip displacement with Non-Linear Aerodynamic Forcing.\relax }}{63}{figure.caption.72}}
\@writefile{toc}{\contentsline {subsection}{\numberline {12.2}Root Shears}{64}{subsection.12.2}}
\@writefile{lof}{\contentsline {figure}{\numberline {12.2}{\ignorespaces Root shears for non-linear aerodynamics. The figure on the left corresponds to spanwise blade root shear and on the right corresponds to chordwise blade root shear.\relax }}{64}{figure.caption.73}}
\@writefile{lof}{\contentsline {figure}{\numberline {12.3}{\ignorespaces Blade root shear in the vertical direction for non-linear aerodynamics.\relax }}{64}{figure.caption.74}}
\@writefile{toc}{\contentsline {subsection}{\numberline {12.3}Root Moments}{65}{subsection.12.3}}
\@writefile{lof}{\contentsline {figure}{\numberline {12.4}{\ignorespaces Root moments for non-linear aerodynamics. The figure on the left corresponds to torsional blade root moment and on the right corresponds to flapping blade root moment.\relax }}{65}{figure.caption.75}}
\@writefile{lof}{\contentsline {figure}{\numberline {12.5}{\ignorespaces Lagging Blade root moment for non-linear aerodynamics.\relax }}{65}{figure.caption.76}}
\@writefile{toc}{\contentsline {subsection}{\numberline {12.4}Hub Forces and Moments}{65}{subsection.12.4}}
\@writefile{lof}{\contentsline {figure}{\numberline {12.6}{\ignorespaces Hub forces for non-linear aerodynamics. The figure on the left corresponds to Longitudinal and lateral hub forces and on the right corresponds to vertical hub force.\relax }}{66}{figure.caption.77}}
\@writefile{lof}{\contentsline {figure}{\numberline {12.7}{\ignorespaces Hub Moments for non-linear aerodynamics. The figure on the left corresponds to Rolling and Pitching hub moments and on the right corresponds to Yawing hub moment.\relax }}{66}{figure.caption.78}}
\@setckpt{chapter3}{
\setcounter{page}{67}
\setcounter{equation}{0}
\setcounter{enumi}{8}
\setcounter{enumii}{0}
\setcounter{enumiii}{0}
\setcounter{enumiv}{0}
\setcounter{footnote}{0}
\setcounter{mpfootnote}{0}
\setcounter{part}{0}
\setcounter{section}{12}
\setcounter{subsection}{4}
\setcounter{subsubsection}{0}
\setcounter{paragraph}{0}
\setcounter{subparagraph}{0}
\setcounter{figure}{7}
\setcounter{table}{7}
\setcounter{parentequation}{0}
\setcounter{float@type}{4}
\setcounter{lips@count}{0}
\setcounter{ContinuedFloat}{0}
\setcounter{KVtest}{1}
\setcounter{subfigure}{0}
\setcounter{subfigure@save}{0}
\setcounter{lofdepth}{1}
\setcounter{subtable}{0}
\setcounter{subtable@save}{0}
\setcounter{lotdepth}{1}
\setcounter{Item}{15}
\setcounter{Hfootnote}{0}
\setcounter{bookmark@seq@number}{71}
\setcounter{section@level}{2}
}
