\relax 
\providecommand\hyper@newdestlabel[2]{}
\@writefile{toc}{\contentsline {section}{\numberline {8}Blade Response to Aerodynamic Forcing}{45}{section.8}}
\@writefile{toc}{\contentsline {subsection}{\numberline {8.1}Method I}{45}{subsection.8.1}}
\@writefile{toc}{\contentsline {subsubsection}{\numberline {8.1.1}Linear Aerodynamic Model}{45}{subsubsection.8.1.1}}
\@writefile{toc}{\contentsline {subsubsection}{\numberline {8.1.2}Non-Linear Aerodynamic Model}{46}{subsubsection.8.1.2}}
\@writefile{toc}{\contentsline {subsection}{\numberline {8.2}Method II}{47}{subsection.8.2}}
\@setckpt{chapter1}{
\setcounter{page}{48}
\setcounter{equation}{13}
\setcounter{enumi}{7}
\setcounter{enumii}{0}
\setcounter{enumiii}{0}
\setcounter{enumiv}{0}
\setcounter{footnote}{0}
\setcounter{mpfootnote}{0}
\setcounter{part}{0}
\setcounter{section}{8}
\setcounter{subsection}{2}
\setcounter{subsubsection}{0}
\setcounter{paragraph}{0}
\setcounter{subparagraph}{0}
\setcounter{figure}{0}
\setcounter{table}{3}
\setcounter{parentequation}{0}
\setcounter{float@type}{4}
\setcounter{lips@count}{0}
\setcounter{ContinuedFloat}{0}
\setcounter{KVtest}{1}
\setcounter{subfigure}{0}
\setcounter{subfigure@save}{0}
\setcounter{lofdepth}{1}
\setcounter{subtable}{0}
\setcounter{subtable@save}{0}
\setcounter{lotdepth}{1}
\setcounter{Item}{7}
\setcounter{Hfootnote}{0}
\setcounter{bookmark@seq@number}{50}
\setcounter{section@level}{2}
}
