\relax 
\providecommand\hyper@newdestlabel[2]{}
\@writefile{toc}{\contentsline {section}{\numberline {20}Method II Results and Analysis}{101}{section.20}}
\@writefile{lof}{\contentsline {figure}{\numberline {20.1}{\ignorespaces Tip displacement with Non-Linear Aerodynamic Forcing.\relax }}{101}{figure.caption.137}}
\@setckpt{chapter9}{
\setcounter{page}{104}
\setcounter{equation}{17}
\setcounter{enumi}{11}
\setcounter{enumii}{0}
\setcounter{enumiii}{0}
\setcounter{enumiv}{0}
\setcounter{footnote}{0}
\setcounter{mpfootnote}{0}
\setcounter{part}{0}
\setcounter{section}{20}
\setcounter{subsection}{0}
\setcounter{subsubsection}{0}
\setcounter{paragraph}{0}
\setcounter{subparagraph}{0}
\setcounter{figure}{1}
\setcounter{table}{14}
\setcounter{parentequation}{0}
\setcounter{float@type}{4}
\setcounter{lips@count}{0}
\setcounter{ContinuedFloat}{0}
\setcounter{KVtest}{1}
\setcounter{subfigure}{0}
\setcounter{subfigure@save}{0}
\setcounter{lofdepth}{1}
\setcounter{subtable}{0}
\setcounter{subtable@save}{0}
\setcounter{lotdepth}{1}
\setcounter{Item}{35}
\setcounter{Hfootnote}{0}
\setcounter{bookmark@seq@number}{103}
\setcounter{section@level}{1}
}
