\relax 
\providecommand\hyper@newdestlabel[2]{}
\@writefile{toc}{\contentsline {section}{\numberline {12}fff}{48}{section.12}}
\@writefile{toc}{\contentsline {subsection}{\numberline {12.1}Tip Displacement}{48}{subsection.12.1}}
\@writefile{lof}{\contentsline {figure}{\numberline {43}{\ignorespaces Tip displacement with Non-Linear Aerodynamic Forcing.\relax }}{48}{figure.caption.58}}
\@setckpt{chapter4}{
\setcounter{page}{49}
\setcounter{equation}{73}
\setcounter{enumi}{8}
\setcounter{enumii}{0}
\setcounter{enumiii}{0}
\setcounter{enumiv}{0}
\setcounter{footnote}{0}
\setcounter{mpfootnote}{0}
\setcounter{part}{0}
\setcounter{section}{12}
\setcounter{subsection}{1}
\setcounter{subsubsection}{0}
\setcounter{paragraph}{0}
\setcounter{subparagraph}{0}
\setcounter{figure}{43}
\setcounter{table}{6}
\setcounter{parentequation}{0}
\setcounter{float@type}{4}
\setcounter{lips@count}{0}
\setcounter{ContinuedFloat}{0}
\setcounter{KVtest}{1}
\setcounter{subfigure}{0}
\setcounter{subfigure@save}{0}
\setcounter{lofdepth}{1}
\setcounter{subtable}{0}
\setcounter{subtable@save}{0}
\setcounter{lotdepth}{1}
\setcounter{Item}{22}
\setcounter{Hfootnote}{0}
\setcounter{bookmark@seq@number}{67}
\setcounter{section@level}{2}
}
