\relax 
\providecommand\hyper@newdestlabel[2]{}
\@writefile{toc}{\contentsline {section}{\numberline {19}Force Summation vs Modal Method}{98}{section.19}}
\@writefile{toc}{\contentsline {paragraph}{Modal Method :}{98}{section*.132}}
\@writefile{toc}{\contentsline {subsection}{\numberline {19.1}Hingless Rotor}{98}{subsection.19.1}}
\@writefile{lof}{\contentsline {figure}{\numberline {19.1}{\ignorespaces Comparison of Modal and Force Summation method for hingless rotor.\relax }}{98}{figure.caption.133}}
\@writefile{lof}{\contentsline {figure}{\numberline {19.2}{\ignorespaces Convergence plot of Bending Moment at root.\relax }}{99}{figure.caption.134}}
\@writefile{lof}{\contentsline {figure}{\numberline {19.3}{\ignorespaces Convergence plot of Bending Moment at root.\relax }}{99}{figure.caption.135}}
\@writefile{toc}{\contentsline {subsection}{\numberline {19.2}Articulated Rotor}{100}{subsection.19.2}}
\@writefile{lof}{\contentsline {figure}{\numberline {19.4}{\ignorespaces Comparison of Modal and Force Summation method for Articulated rotor.\relax }}{100}{figure.caption.136}}
\@setckpt{chapter6}{
\setcounter{page}{101}
\setcounter{equation}{2}
\setcounter{enumi}{11}
\setcounter{enumii}{0}
\setcounter{enumiii}{0}
\setcounter{enumiv}{0}
\setcounter{footnote}{0}
\setcounter{mpfootnote}{0}
\setcounter{part}{0}
\setcounter{section}{19}
\setcounter{subsection}{2}
\setcounter{subsubsection}{0}
\setcounter{paragraph}{0}
\setcounter{subparagraph}{0}
\setcounter{figure}{4}
\setcounter{table}{14}
\setcounter{parentequation}{0}
\setcounter{float@type}{4}
\setcounter{lips@count}{0}
\setcounter{ContinuedFloat}{0}
\setcounter{KVtest}{1}
\setcounter{subfigure}{0}
\setcounter{subfigure@save}{0}
\setcounter{lofdepth}{1}
\setcounter{subtable}{0}
\setcounter{subtable@save}{0}
\setcounter{lotdepth}{1}
\setcounter{Item}{35}
\setcounter{Hfootnote}{0}
\setcounter{bookmark@seq@number}{102}
\setcounter{section@level}{2}
}
