\relax 
\providecommand\hyper@newdestlabel[2]{}
\@writefile{toc}{\contentsline {section}{\numberline {14}Dimensional Cases}{71}{section.14}}
\newlabel{my-label}{{\caption@xref {my-label}{ on input line 6}}{71}{Dimensional Cases}{table.caption.88}{}}
\@writefile{lot}{\contentsline {table}{\numberline {10}{\ignorespaces Reference parameters for Non-dimensionalization\relax }}{71}{table.caption.88}}
\newlabel{my-label}{{\caption@xref {my-label}{ on input line 27}}{71}{Dimensional Cases}{table.caption.89}{}}
\@writefile{lot}{\contentsline {table}{\numberline {11}{\ignorespaces Trim results for Non-Linear Aerodynamic forcing.\relax }}{71}{table.caption.89}}
\@writefile{toc}{\contentsline {subsection}{\numberline {14.1}Tip Displacement}{71}{subsection.14.1}}
\@writefile{lof}{\contentsline {figure}{\numberline {14.1}{\ignorespaces Tip displacement with Non-Linear Aerodynamic Forcing.\relax }}{71}{figure.caption.90}}
\@writefile{toc}{\contentsline {subsection}{\numberline {14.2}Root Shears}{72}{subsection.14.2}}
\@writefile{lof}{\contentsline {figure}{\numberline {14.2}{\ignorespaces Root shears for non-linear aerodynamics. The figure on the left corresponds to spanwise blade root shear and on the right corresponds to chordwise blade root shear.\relax }}{72}{figure.caption.91}}
\@writefile{lof}{\contentsline {figure}{\numberline {14.3}{\ignorespaces Blade root shear in the vertical direction for non-linear aerodynamics.\relax }}{72}{figure.caption.92}}
\@writefile{toc}{\contentsline {subsection}{\numberline {14.3}Root Moments}{73}{subsection.14.3}}
\@writefile{lof}{\contentsline {figure}{\numberline {14.4}{\ignorespaces Root moments for non-linear aerodynamics. The figure on the left corresponds to torsional blade root moment and on the right corresponds to flapping blade root moment.\relax }}{73}{figure.caption.93}}
\@writefile{lof}{\contentsline {figure}{\numberline {14.5}{\ignorespaces Lagging Blade root moment for non-linear aerodynamics.\relax }}{73}{figure.caption.94}}
\@writefile{toc}{\contentsline {subsection}{\numberline {14.4}Hub Forces and Moments}{74}{subsection.14.4}}
\@writefile{lof}{\contentsline {figure}{\numberline {14.6}{\ignorespaces Dimensional Hub forces for non-linear aerodynamics.\relax }}{74}{figure.caption.95}}
\@writefile{lof}{\contentsline {figure}{\numberline {14.7}{\ignorespaces Dimensional Hub Moments for non-linear aerodynamics.\relax }}{74}{figure.caption.96}}
\@setckpt{chapter14}{
\setcounter{page}{75}
\setcounter{equation}{0}
\setcounter{enumi}{8}
\setcounter{enumii}{0}
\setcounter{enumiii}{0}
\setcounter{enumiv}{0}
\setcounter{footnote}{0}
\setcounter{mpfootnote}{0}
\setcounter{part}{0}
\setcounter{section}{14}
\setcounter{subsection}{4}
\setcounter{subsubsection}{0}
\setcounter{paragraph}{0}
\setcounter{subparagraph}{0}
\setcounter{figure}{7}
\setcounter{table}{11}
\setcounter{parentequation}{0}
\setcounter{float@type}{4}
\setcounter{lips@count}{0}
\setcounter{ContinuedFloat}{0}
\setcounter{KVtest}{1}
\setcounter{subfigure}{0}
\setcounter{subfigure@save}{0}
\setcounter{lofdepth}{1}
\setcounter{subtable}{0}
\setcounter{subtable@save}{0}
\setcounter{lotdepth}{1}
\setcounter{Item}{15}
\setcounter{Hfootnote}{0}
\setcounter{bookmark@seq@number}{81}
\setcounter{section@level}{2}
}
