\relax 
\providecommand\hyper@newdestlabel[2]{}
\providecommand\HyperFirstAtBeginDocument{\AtBeginDocument}
\HyperFirstAtBeginDocument{\ifx\hyper@anchor\@undefined
\global\let\oldcontentsline\contentsline
\gdef\contentsline#1#2#3#4{\oldcontentsline{#1}{#2}{#3}}
\global\let\oldnewlabel\newlabel
\gdef\newlabel#1#2{\newlabelxx{#1}#2}
\gdef\newlabelxx#1#2#3#4#5#6{\oldnewlabel{#1}{{#2}{#3}}}
\AtEndDocument{\ifx\hyper@anchor\@undefined
\let\contentsline\oldcontentsline
\let\newlabel\oldnewlabel
\fi}
\fi}
\global\let\hyper@last\relax 
\gdef\HyperFirstAtBeginDocument#1{#1}
\providecommand\HyField@AuxAddToFields[1]{}
\providecommand\HyField@AuxAddToCoFields[2]{}
\babel@aux{english}{}
\@writefile{toc}{\contentsline {section}{\numberline {1}Introduction}{6}{section.1}}
\@writefile{toc}{\contentsline {subsection}{\numberline {1.1}List of Symbols}{6}{subsection.1.1}}
\providecommand*\caption@xref[2]{\@setref\relax\@undefined{#1}}
\newlabel{my-label}{{\caption@xref {my-label}{ on input line 165}}{6}{List of Symbols}{table.caption.3}{}}
\newlabel{my-label}{{\caption@xref {my-label}{ on input line 203}}{7}{List of Symbols}{table.caption.4}{}}
\newlabel{my-label}{{\caption@xref {my-label}{ on input line 258}}{8}{List of Symbols}{table.caption.5}{}}
\@writefile{toc}{\contentsline {subsection}{\numberline {1.2}Procedure}{8}{subsection.1.2}}
\@writefile{toc}{\contentsline {paragraph}{Implementation of FEM}{8}{section*.6}}
\@writefile{toc}{\contentsline {paragraph}{Implementation of FET}{8}{section*.7}}
\@writefile{toc}{\contentsline {paragraph}{Derivation of Aerodynamic Forcing}{8}{section*.8}}
\@writefile{toc}{\contentsline {paragraph}{Blade response to Aerodynamic Forcing using FET }{9}{section*.9}}
\@writefile{toc}{\contentsline {paragraph}{Calculation of Root Loads}{9}{section*.10}}
\@writefile{toc}{\contentsline {paragraph}{Calculation of Hub Loads}{9}{section*.11}}
\@writefile{toc}{\contentsline {paragraph}{Trim}{9}{section*.12}}
\@writefile{toc}{\contentsline {paragraph}{Couple with Free Wake}{9}{section*.13}}
\@writefile{toc}{\contentsline {subsection}{\numberline {1.3}Reference Frames}{9}{subsection.1.3}}
\@writefile{toc}{\contentsline {subsubsection}{\numberline {1.3.1}Gravity Frame; [$X_G, Y_G, Z_G$]; [$ \mathaccentV {hat}05E{I_G}, \mathaccentV {hat}05E{J_G}, \mathaccentV {hat}05E{K_G}$]}{9}{subsubsection.1.3.1}}
\@writefile{toc}{\contentsline {subsubsection}{\numberline {1.3.2}Body Frame; [$X_B, Y_B, Z_B$]; [$ \mathaccentV {hat}05E{I_B}, \mathaccentV {hat}05E{J_B}, \mathaccentV {hat}05E{K_B}$]}{10}{subsubsection.1.3.2}}
\@writefile{toc}{\contentsline {subsubsection}{\numberline {1.3.3}Hub Frame; [$X_H, Y_H, Z_H$]; [$\mathaccentV {hat}05E{I_H}, \mathaccentV {hat}05E{J_H}, \mathaccentV {hat}05E{K_H}$]}{10}{subsubsection.1.3.3}}
\@writefile{toc}{\contentsline {subsubsection}{\numberline {1.3.4}Hub Rotating Frame; [$X, Y, Z$]; [$\mathaccentV {hat}05E{I}, \mathaccentV {hat}05E{J}, \mathaccentV {hat}05E{K}$] }{10}{subsubsection.1.3.4}}
\@writefile{toc}{\contentsline {subsubsection}{\numberline {1.3.5}Undeformed Blade Frame; [$x, y, z$]; [$\mathaccentV {hat}05E{i}, \mathaccentV {hat}05E{j}, \mathaccentV {hat}05E{k}$]}{11}{subsubsection.1.3.5}}
\@writefile{toc}{\contentsline {subsubsection}{\numberline {1.3.6}Deformed Blade Frame; [$\xi , \eta , \zeta $]; [$\mathaccentV {hat}05E{i_{\xi }}, \mathaccentV {hat}05E{j_{\eta }}, \mathaccentV {hat}05E{k_{\zeta }} $]}{11}{subsubsection.1.3.6}}
\@writefile{toc}{\contentsline {subsection}{\numberline {1.4}Non-Dimensionalization}{12}{subsection.1.4}}
\newlabel{my-label}{{\caption@xref {my-label}{ on input line 573}}{13}{Non-Dimensionalization}{table.caption.14}{}}
\@writefile{lot}{\contentsline {table}{\numberline {1}{\ignorespaces Reference parameters for Non-dimensionalization\relax }}{13}{table.caption.14}}
\@writefile{toc}{\contentsline {subsection}{\numberline {1.5}Ordering Scheme}{13}{subsection.1.5}}
\@writefile{toc}{\contentsline {subsection}{\numberline {1.6}Blade Parameters}{13}{subsection.1.6}}
\@writefile{toc}{\contentsline {subsection}{\numberline {1.7}Aerodynamic and Flight Parameters}{14}{subsection.1.7}}
\@writefile{toc}{\contentsline {section}{\numberline {2}Mathematical Background}{15}{section.2}}
\@writefile{toc}{\contentsline {subsection}{\numberline {2.1}Gaussian Quadrature}{15}{subsection.2.1}}
\@writefile{lot}{\contentsline {table}{\numberline {2}{\ignorespaces Nodes and Weights for Gaussian Quadrature till $6^{th}$ order\relax }}{16}{table.caption.15}}
\newlabel{my-label}{{2}{16}{Nodes and Weights for Gaussian Quadrature till $6^{th}$ order\relax }{table.caption.15}{}}
\@writefile{toc}{\contentsline {subsection}{\numberline {2.2}Shape Functions}{16}{subsection.2.2}}
\@writefile{toc}{\contentsline {subsubsection}{\numberline {2.2.1}Hermite Polynomials}{17}{subsubsection.2.2.1}}
\@writefile{lof}{\contentsline {figure}{\numberline {2.1}{\ignorespaces Nodal displacements and slopes of the finite element.\relax }}{17}{figure.caption.16}}
\@writefile{lof}{\contentsline {figure}{\numberline {2.2}{\ignorespaces Graph of Hermite shape functions.\relax }}{18}{figure.caption.17}}
\@writefile{toc}{\contentsline {subsubsection}{\numberline {2.2.2}Lagrangian Polynomials}{18}{subsubsection.2.2.2}}
\@writefile{toc}{\contentsline {paragraph}{First order}{18}{section*.18}}
\@writefile{toc}{\contentsline {paragraph}{Fifth order}{19}{section*.19}}
\@writefile{lof}{\contentsline {figure}{\numberline {2.3}{\ignorespaces Graph of Lagrangian time shape functions.\relax }}{19}{figure.caption.20}}
\@writefile{toc}{\contentsline {section}{\numberline {3}Finite Element Method}{20}{section.3}}
\@writefile{toc}{\contentsline {paragraph}{Kinetic Energy}{21}{section*.21}}
\@writefile{toc}{\contentsline {paragraph}{Potential Energy}{21}{section*.22}}
\@writefile{toc}{\contentsline {paragraph}{Virtual Work}{21}{section*.23}}
\@writefile{toc}{\contentsline {section}{\numberline {4}Natural Frequency and Mode Shapes}{23}{section.4}}
\@writefile{toc}{\contentsline {subsection}{\numberline {4.1}Hingeless Rotor}{23}{subsection.4.1}}
\@writefile{toc}{\contentsline {subsubsection}{\numberline {4.1.1}Frequency Plots}{23}{subsubsection.4.1.1}}
\@writefile{lof}{\contentsline {figure}{\numberline {4.1}{\ignorespaces Rotating Flap frequency versus non-rotating Flap frequency.\relax }}{23}{figure.caption.24}}
\@writefile{lof}{\contentsline {figure}{\numberline {4.2}{\ignorespaces Natural frequencies of a uniform cantilevered beam with varying rpm.\relax }}{24}{figure.caption.26}}
\@writefile{toc}{\contentsline {subsubsection}{\numberline {4.1.2}Fan Plots}{24}{subsubsection.4.1.2}}
\@writefile{lof}{\contentsline {figure}{\numberline {4.3}{\ignorespaces Fanplot of hingeless rotor.\relax }}{25}{figure.caption.27}}
\@writefile{toc}{\contentsline {subsubsection}{\numberline {4.1.3}Mode Shapes}{25}{subsubsection.4.1.3}}
\@writefile{lof}{\contentsline {figure}{\numberline {4.4}{\ignorespaces Mode shapes for a non-rotating uniform cantilever beam.\relax }}{25}{figure.caption.28}}
\@writefile{lof}{\contentsline {figure}{\numberline {4.5}{\ignorespaces Mode shapes for a rotating (100rpm) uniform cantilever beam. \relax }}{26}{figure.caption.29}}
\@writefile{lof}{\contentsline {figure}{\numberline {4.6}{\ignorespaces Variation of first mode shape with rotating frequency.\relax }}{26}{figure.caption.30}}
\@writefile{lof}{\contentsline {figure}{\numberline {4.7}{\ignorespaces Variation of second mode shape with rotating frequency.\relax }}{27}{figure.caption.31}}
\@writefile{toc}{\contentsline {subsection}{\numberline {4.2}Articulated Rotor}{27}{subsection.4.2}}
\@writefile{toc}{\contentsline {subsubsection}{\numberline {4.2.1}Frequency Plots}{28}{subsubsection.4.2.1}}
\@writefile{lof}{\contentsline {figure}{\numberline {4.8}{\ignorespaces Natural frequencies of a uniform articulated rotor with varying rpm.\relax }}{28}{figure.caption.32}}
\@writefile{toc}{\contentsline {subsubsection}{\numberline {4.2.2}Fan Plots}{28}{subsubsection.4.2.2}}
\@writefile{lof}{\contentsline {figure}{\numberline {4.9}{\ignorespaces Fanplot of an articulated rotor with zero hinge offset.\relax }}{28}{figure.caption.33}}
\@writefile{toc}{\contentsline {subsubsection}{\numberline {4.2.3}Mode Shapes}{29}{subsubsection.4.2.3}}
\@writefile{lof}{\contentsline {figure}{\numberline {4.10}{\ignorespaces Mode shapes for a non-rotating uniform articulated rotor.\relax }}{29}{figure.caption.34}}
\@writefile{lof}{\contentsline {figure}{\numberline {4.11}{\ignorespaces Mode shapes for a rotating (40rpm) uniform hinged beam. \relax }}{29}{figure.caption.35}}
\@writefile{lof}{\contentsline {figure}{\numberline {4.12}{\ignorespaces Variation of first mode shape with rotating frequency for Articulated rotor.\relax }}{30}{figure.caption.36}}
\@writefile{lof}{\contentsline {figure}{\numberline {4.13}{\ignorespaces Variation of second mode shape with rotating frequency for Articulated rotor.\relax }}{30}{figure.caption.37}}
\@writefile{toc}{\contentsline {subsection}{\numberline {4.3}Teetering Rotor}{30}{subsection.4.3}}
\@writefile{toc}{\contentsline {subsubsection}{\numberline {4.3.1}Frequency Plots}{31}{subsubsection.4.3.1}}
\@writefile{lof}{\contentsline {figure}{\numberline {4.14}{\ignorespaces Natural frequencies of a uniform teetering rotor with varying rpm.\relax }}{31}{figure.caption.38}}
\newlabel{my-label}{{\caption@xref {my-label}{ on input line 1333}}{31}{Frequency Plots}{table.caption.39}{}}
\@writefile{lot}{\contentsline {table}{\numberline {3}{\ignorespaces Natural frequencies of teetering rotor, hingeless and articulated rotor.\relax }}{31}{table.caption.39}}
\@writefile{toc}{\contentsline {subsubsection}{\numberline {4.3.2}Fan Plots}{31}{subsubsection.4.3.2}}
\@writefile{lof}{\contentsline {figure}{\numberline {4.15}{\ignorespaces Fanplot of teetering rotor.\relax }}{32}{figure.caption.40}}
\@writefile{toc}{\contentsline {subsubsection}{\numberline {4.3.3}Mode Shapes}{32}{subsubsection.4.3.3}}
\@writefile{lof}{\contentsline {figure}{\numberline {4.16}{\ignorespaces Mode shapes for a non-rotating uniform teetering rotor.\relax }}{32}{figure.caption.41}}
\@writefile{lof}{\contentsline {figure}{\numberline {4.17}{\ignorespaces Mode shapes for a rotating (40rpm) uniform hinged beam. \relax }}{33}{figure.caption.42}}
\@writefile{lof}{\contentsline {figure}{\numberline {4.18}{\ignorespaces Variation of first mode shape with rotating frequency.\relax }}{33}{figure.caption.43}}
\@writefile{lof}{\contentsline {figure}{\numberline {4.19}{\ignorespaces Variation of second mode shape with rotating frequency.\relax }}{34}{figure.caption.44}}
\@writefile{toc}{\contentsline {section}{\numberline {5}Finite Element in Time}{34}{section.5}}
\@writefile{lof}{\contentsline {figure}{\numberline {5.1}{\ignorespaces Finite Element in Time (FET) discretization of a period of oscillatory motion.\relax }}{35}{figure.caption.45}}
\@writefile{toc}{\contentsline {section}{\numberline {6}Dynamic Response}{36}{section.6}}
\@writefile{toc}{\contentsline {subsection}{\numberline {6.1}Sinusoidal Tip Load}{36}{subsection.6.1}}
\@writefile{toc}{\contentsline {subsubsection}{\numberline {6.1.1}Exact Solution}{36}{subsubsection.6.1.1}}
\@writefile{toc}{\contentsline {subsubsection}{\numberline {6.1.2}Tip Displacement}{37}{subsubsection.6.1.2}}
\@writefile{lof}{\contentsline {figure}{\numberline {6.1}{\ignorespaces Variation of first modal coordinate with time.\relax }}{37}{figure.caption.46}}
\@writefile{lof}{\contentsline {figure}{\numberline {6.2}{\ignorespaces Variation of second modal coordinate with time.\relax }}{37}{figure.caption.47}}
\@writefile{lof}{\contentsline {figure}{\numberline {6.3}{\ignorespaces Tip displacement to sinusoidal tip load.\relax }}{38}{figure.caption.48}}
\@writefile{toc}{\contentsline {subsubsection}{\numberline {6.1.3}Damped Response}{38}{subsubsection.6.1.3}}
\@writefile{lof}{\contentsline {figure}{\numberline {6.4}{\ignorespaces Damped modal response ($\zeta $ = 1.0) of rotating beam to a sinusoidal tip load.\relax }}{38}{figure.caption.49}}
\@writefile{toc}{\contentsline {subsubsection}{\numberline {6.1.4}Velocity Profiles}{39}{subsubsection.6.1.4}}
\@writefile{lof}{\contentsline {figure}{\numberline {6.5}{\ignorespaces Time derivative of first modal coordinate of using Lagrangian (First order).\relax }}{39}{figure.caption.50}}
\@writefile{lof}{\contentsline {figure}{\numberline {6.6}{\ignorespaces Time derivative of first modal coordinate of using Lagrangian (Fifth order).\relax }}{39}{figure.caption.51}}
\@writefile{lof}{\contentsline {figure}{\numberline {6.7}{\ignorespaces Time derivative of first modal coordinate of using Hermite (Third order).\relax }}{40}{figure.caption.52}}
\@writefile{toc}{\contentsline {subsection}{\numberline {6.2}Constant Tip Load}{40}{subsection.6.2}}
\@writefile{lof}{\contentsline {figure}{\numberline {6.8}{\ignorespaces Tip displacement for a constant tip load to a cantilever beam.\relax }}{40}{figure.caption.53}}
\@input{chapter0.aux}
\@input{chapter1.aux}
\@input{chapter8.aux}
\@input{chapter7.aux}
\@input{chapter2.aux}
\@input{chapter3.aux}
\@input{chapter5.aux}
\@input{chapter14.aux}
\@input{chapter15.aux}
\@input{chapter12.aux}
\@input{chapter16.aux}
\@input{chapter13.aux}
\@input{chapter6.aux}
\@input{chapter9.aux}
\@input{chapter11.aux}
\@input{chapter10.aux}
